<?xml version="1.0" encoding="UTF-8"?>
<svg width="54px" height="62px" viewBox="0 0 54 62" version="1.1" xmlns="http://www.w3.org/2000/svg" xmlns:xlink="http://www.w3.org/1999/xlink">
    <title>ac_icon</title>
    <g id="Page-1" stroke="none" stroke-width="1" fill="none" fill-rule="evenodd">
        <path d="M52.0703522,43.439252 L47.9089,41.0150442 L51.1913662,40.127628 C52.1826555,39.8596892 52.7711628,38.8315433 52.5055984,37.8312005 C52.2396566,36.8306673 51.2209992,36.2372791 50.2295212,36.5052179 L43.3567455,38.3632693 L39.9536712,36.3808653 L48.1923952,32.7157983 C48.8662152,32.4158668 49.301084,31.7430683 49.301084,31 C49.301084,30.2569317 48.8662152,29.5841332 48.1923952,29.2842017 L39.9536712,25.6191347 L43.3567455,23.6367307 L50.2297099,25.4949726 C50.3907095,25.5383912 50.552464,25.5593388 50.7117649,25.5593388 C51.5322399,25.5593388 52.2832567,25.0068937 52.5057872,24.1691804 C52.7713515,23.169028 52.1832218,22.1408821 51.191555,21.8727529 L47.9089,20.9853367 L52.070541,18.5609385 C52.9593417,18.043152 53.2639763,16.896557 52.7505896,15.9998096 C52.2375804,15.1032526 51.1015236,14.7955134 50.2119679,15.3136807 L46.0508932,17.7375076 L46.9302567,14.4262645 C47.195821,13.4261121 46.6075025,12.3979662 45.6160245,12.129837 C44.6249239,11.8632313 43.6058891,12.4554768 43.3399472,13.4558196 L41.4987387,20.3892824 L38.0954756,22.3718769 L39.0688341,13.3409887 C39.1484846,12.60211 38.7881701,11.8858927 38.1505892,11.5145491 C37.5126307,11.1426341 36.717825,11.186624 36.1236554,11.6253809 L28.85829,16.9915829 L28.85829,13.0271557 L33.8894796,7.95098263 C34.6152045,7.21857861 34.6152045,6.03161182 33.8894796,5.2992078 C33.1635659,4.56718464 31.9871176,4.56718464 31.261204,5.2992078 L28.85829,7.72360603 L28.85829,2.875 C28.85829,1.83942718 28.0261128,1 26.9999056,1 C25.9735097,1 25.1415213,1.83961761 25.1415213,2.875 L25.1415213,7.72303473 L22.7391735,5.29901737 C22.0132599,4.56699421 20.8368116,4.56699421 20.1108979,5.29901737 C19.385173,6.03142139 19.385173,7.21838818 20.1108979,7.9507922 L25.14171,13.0265844 L25.14171,16.9910116 L17.8769108,11.6253809 C17.2827412,11.1862431 16.4877468,11.1424436 15.8499771,11.5145491 C15.2122073,11.8860832 14.8520817,12.60211 14.9317321,13.3409887 L15.9050906,22.3720673 L12.5023938,20.3898537 L10.6608078,13.4558196 C10.3950547,12.4556673 9.37639732,11.8628504 8.38473052,12.129837 C7.39306371,12.3979662 6.80493396,13.4259217 7.07049832,14.4262645 L7.95005053,17.7380789 L3.78803213,15.3136807 C2.89904267,14.7957038 1.76241963,15.1026813 1.24941042,15.9998096 C0.736023724,16.896557 1.04065833,18.0433425 1.92945905,18.5611289 L6.09147744,20.9855271 L2.8092,21.8727529 C1.81791069,22.1408821 1.22940344,23.1688376 1.49496781,24.1691804 C1.71749829,25.0068937 2.46832633,25.5593388 3.28899007,25.5593388 C3.44829094,25.5593388 3.6100455,25.5385817 3.77104507,25.4949726 L10.6434432,23.6369211 L14.0465175,25.6191347 L5.80817104,29.2840113 C5.134351,29.5837523 4.69948227,30.2567413 4.69948227,30.9996191 C4.69948227,31.742497 5.134351,32.415486 5.80817104,32.7154174 L14.0465175,36.380294 L10.6434432,38.362698 L3.77104507,36.504837 C2.78013325,36.2372791 1.76090966,36.8302864 1.49496781,37.8308196 C1.22921469,38.830972 1.81772194,39.8591179 2.8092,40.1272471 L6.0912887,41.0144729 L1.92964779,43.4386807 C1.04084707,43.9564671 0.736212469,45.1030622 1.24959916,46 C1.5936815,46.6015768 2.21823906,46.9376904 2.86072741,46.9376904 C3.175743,46.9376904 3.49547722,46.8565661 3.78803213,46.6861289 L7.95005053,44.2617307 L7.07030958,47.573926 C6.80455647,48.5740783 7.39306371,49.6022243 8.38454177,49.8703534 C8.54554135,49.9137721 8.70729591,49.9347197 8.86659678,49.9347197 C9.68707177,49.9347197 10.4380886,49.3822745 10.660619,48.5445612 L12.5022051,41.6101463 L15.9049019,39.6279327 L14.9315434,48.6592017 C14.8518929,49.3980804 15.2122073,50.1142977 15.8497883,50.4860222 C16.4877468,50.8575564 17.2825524,50.8139473 17.876722,50.375 L25.1415213,45.0091789 L25.1415213,48.9734156 L20.1107092,54.0492078 C19.3849842,54.7816118 19.3849842,55.9685786 20.1107092,56.7009826 C20.8366228,57.4330058 22.0130711,57.4330058 22.7389848,56.7009826 L25.1413325,54.2769653 L25.1413325,59.125 C25.1413325,60.1605728 25.9735097,61 26.9997169,61 C28.0261128,61 28.8581012,60.1603824 28.8581012,59.125 L28.8581012,54.276394 L31.2610152,56.7007922 C31.6239721,57.0668038 32.099421,57.2498096 32.5750587,57.2498096 C33.0506963,57.2498096 33.526334,57.0668038 33.8892908,56.7007922 C34.6150158,55.9683882 34.6150158,54.7814214 33.8892908,54.0490174 L28.8581012,48.9728443 L28.8581012,45.0086076 L36.1234667,50.3748096 C36.4488633,50.6151356 36.8344695,50.7370125 37.221397,50.7370125 C37.5411312,50.7370125 37.8618092,50.6539839 38.1504004,50.4860222 C38.7881701,50.1142977 39.1482958,49.3980804 39.0686454,48.6592017 L38.0952869,39.6281231 L41.4985499,41.6107176 L43.3397585,48.5443708 C43.5622889,49.3820841 44.313117,49.9345293 45.1337807,49.9345293 C45.2930816,49.9345293 45.4548361,49.9137721 45.6158357,49.870163 C46.607125,49.6020338 47.1956323,48.5740783 46.9300679,47.5737355 L46.0507044,44.2621115 L50.2117791,46.6859385 C50.504334,46.8565661 50.8238795,46.9375 51.1390838,46.9375 C51.7813834,46.9375 52.4061298,46.6011959 52.7502121,45.9998096 C53.2637875,45.1036335 52.9591529,43.9570384 52.0703522,43.439252 Z M35.1860243,34.4809014 C34.4371596,34.8146086 33.9884509,35.5999381 34.0769341,36.4220678 L35.0000953,45 L28.1090903,39.9030655 C27.7788041,39.658758 27.389402,39.5367968 27,39.5367968 C26.610598,39.5367968 26.2211959,39.658758 25.8909097,39.9032582 L18.9999047,45 L19.9230659,36.4222605 C20.0115491,35.6001307 19.5628404,34.8148013 18.8139757,34.4810941 L11,30.9999037 L18.8139757,27.5189059 C19.5628404,27.1851987 20.0115491,26.3998693 19.9230659,25.5777395 L18.999714,17 L25.890719,22.0967418 C26.5512914,22.585357 27.4483272,22.585357 28.1088996,22.0967418 L34.9999047,17 L34.0767434,25.5777395 C33.9882603,26.3998693 34.4369689,27.1851987 35.1858336,27.5189059 L43,30.9999037 L35.1860243,34.4809014 Z" id="ac_icon" stroke="#4A4F52" fill="#EEF1F9" fill-rule="nonzero"></path>
    </g>
</svg>