<?xml version="1.0" encoding="UTF-8"?>
<svg width="35px" height="35px" viewBox="0 0 35 35" version="1.1" xmlns="http://www.w3.org/2000/svg" xmlns:xlink="http://www.w3.org/1999/xlink">
    <title>calendar</title>
    <g id="Page-1" stroke="none" stroke-width="1" fill="none" fill-rule="evenodd">
        <g id="offers-landing" transform="translate(-311.000000, -592.000000)" fill="#C2C2C2" fill-rule="nonzero">
            <g id="calendar" transform="translate(311.000000, 592.000000)">
                <path d="M27.4013158,19.8026316 C31.5959503,19.8074632 34.9951684,23.2066813 35,27.4013158 C35,31.5979532 31.5979532,35 27.4013158,35 C23.2046784,35 19.8026316,31.5979532 19.8026316,27.4013158 C19.8026316,23.2046784 23.2046784,19.8026316 27.4013158,19.8026316 Z M27.4013158,20.9716599 C23.8503149,20.9716599 20.9716599,23.8503149 20.9716599,27.4013158 C20.9716599,30.9523167 23.8503149,33.8309717 27.4013158,33.8309717 C30.9505808,33.8267845 33.8267845,30.9505808 33.8309717,27.4013158 C33.8309717,23.8503149 30.9523167,20.9716599 27.4013158,20.9716599 Z M26.8333333,0 C28.1219977,0 29.1666667,1.04565075 29.1666667,2.33552632 L29.1666667,2.33552632 L29.1666667,3.50328947 L32.0833333,3.50328947 C33.6941639,3.50328947 35,4.81035291 35,6.42269737 L35,6.42269737 L35,21.6036184 C35,21.9260873 34.7388328,22.1875 34.4166667,22.1875 C34.0945006,22.1875 33.8333333,21.9260873 33.8333333,21.6036184 L33.8333333,21.6036184 L33.8333333,11.6776316 L1.16666667,11.6776316 L1.16666667,29.7779605 C1.16954962,30.7441694 1.95136503,31.5267196 2.91666667,31.5296053 L2.91666667,31.5296053 L19.25,31.5296053 C19.5721661,31.5296053 19.8333333,31.791018 19.8333333,32.1134868 C19.8333333,32.4359557 19.5721661,32.6973684 19.25,32.6973684 L19.25,32.6973684 L2.91666667,32.6973684 C2.14311857,32.6973684 1.40125299,32.3897888 0.854271888,31.8422936 C0.307290784,31.2947985 -1.8189894e-12,30.5522356 -1.8189894e-12,29.7779605 L-1.8189894e-12,29.7779605 L-1.8189894e-12,6.42269737 C-1.8189894e-12,4.81035291 1.30583615,3.50328947 2.91666667,3.50328947 L2.91666667,3.50328947 L5.83333333,3.50328947 L5.83333333,2.33552632 C5.83333333,1.04565075 6.87800225,0 8.16666667,0 C9.45533108,0 10.5,1.04565075 10.5,2.33552632 L10.5,2.33552632 L10.5,3.50328947 L15.1666667,3.50328947 L15.1666667,2.33552632 C15.1666667,1.04565075 16.2113356,0 17.5,0 C18.7886644,0 19.8333333,1.04565075 19.8333333,2.33552632 L19.8333333,2.33552632 L19.8333333,3.50328947 L24.5,3.50328947 L24.5,2.33552632 C24.5,1.04565075 25.5446689,0 26.8333333,0 Z M30.767725,25.0288965 C31.0012453,24.8122484 31.3724376,24.8153468 31.6020032,25.0358603 C31.8315688,25.2563738 31.8347944,25.6129294 31.6092528,25.8372418 L31.6092528,25.8372418 L26.5594903,30.6878851 C26.3270883,30.9110558 25.9503645,30.9110558 25.7179624,30.6878851 L25.7179624,30.6878851 L23.1933787,28.2622776 C22.9678372,28.0379653 22.9710628,27.6814096 23.2006284,27.4608961 C23.430194,27.2403826 23.8013863,27.2372842 24.0349066,27.4539323 L24.0349066,27.4539323 L26.1387264,29.4753672 Z M14.9671053,24.8684211 C15.6029594,24.8684211 16.1184211,25.3986102 16.1184211,26.0526316 L16.1184211,26.0526316 L16.1184211,27.8289474 C16.1184211,28.4829688 15.6029594,29.0131579 14.9671053,29.0131579 L14.9671053,29.0131579 L12.6644737,29.0131579 C12.0286195,29.0131579 11.5131579,28.4829688 11.5131579,27.8289474 L11.5131579,27.8289474 L11.5131579,26.0526316 C11.5131579,25.3986102 12.0286195,24.8684211 12.6644737,24.8684211 L12.6644737,24.8684211 Z M8.05921053,24.8684211 C8.69506468,24.8684211 9.21052632,25.3986102 9.21052632,26.0526316 L9.21052632,26.0526316 L9.21052632,27.8289474 C9.21052632,28.4829688 8.69506468,29.0131579 8.05921053,29.0131579 L8.05921053,29.0131579 L5.75657895,29.0131579 C5.12072479,29.0131579 4.60526316,28.4829688 4.60526316,27.8289474 L4.60526316,27.8289474 L4.60526316,26.0526316 C4.60526316,25.3986102 5.12072479,24.8684211 5.75657895,24.8684211 L5.75657895,24.8684211 Z M14.9671053,26.0526316 L12.6644737,26.0526316 L12.6644737,27.8289474 L14.9671053,27.8289474 L14.9671053,26.0526316 Z M8.05921053,26.0526316 L5.75657895,26.0526316 L5.75657895,27.8289474 L8.05921053,27.8289474 L8.05921053,26.0526316 Z M14.9671053,19.8026316 C15.6029594,19.8026316 16.1184211,20.3328207 16.1184211,20.9868421 L16.1184211,20.9868421 L16.1184211,22.7631579 C16.1184211,23.4171793 15.6029594,23.9473684 14.9671053,23.9473684 L14.9671053,23.9473684 L12.6644737,23.9473684 C12.0286195,23.9473684 11.5131579,23.4171793 11.5131579,22.7631579 L11.5131579,22.7631579 L11.5131579,20.9868421 C11.5131579,20.3328207 12.0286195,19.8026316 12.6644737,19.8026316 L12.6644737,19.8026316 Z M8.05921053,19.8026316 C8.69506468,19.8026316 9.21052632,20.3328207 9.21052632,20.9868421 L9.21052632,20.9868421 L9.21052632,22.7631579 C9.21052632,23.4171793 8.69506468,23.9473684 8.05921053,23.9473684 L8.05921053,23.9473684 L5.75657895,23.9473684 C5.12072479,23.9473684 4.60526316,23.4171793 4.60526316,22.7631579 L4.60526316,22.7631579 L4.60526316,20.9868421 C4.60526316,20.3328207 5.12072479,19.8026316 5.75657895,19.8026316 L5.75657895,19.8026316 Z M21.9736842,19.8026316 C22.3006949,19.8026316 22.5657895,20.0677261 22.5657895,20.3947368 C22.5657895,20.7217475 22.3006949,20.9868421 21.9736842,20.9868421 L21.9736842,20.9868421 L19.6052632,20.9868421 L19.6052632,22.7631579 C19.9322739,22.7631579 20.1973684,23.0282525 20.1973684,23.3552632 C20.1973684,23.6822739 19.9322739,23.9473684 19.6052632,23.9473684 C18.9512417,23.9473684 18.4210526,23.4171793 18.4210526,22.7631579 L18.4210526,22.7631579 L18.4210526,20.9868421 C18.4210526,20.3328207 18.9512417,19.8026316 19.6052632,19.8026316 L19.6052632,19.8026316 Z M14.9671053,20.9868421 L12.6644737,20.9868421 L12.6644737,22.7631579 L14.9671053,22.7631579 L14.9671053,20.9868421 Z M8.05921053,20.9868421 L5.75657895,20.9868421 L5.75657895,22.7631579 L8.05921053,22.7631579 L8.05921053,20.9868421 Z M14.9671053,14.7368421 C15.6029594,14.7368421 16.1184211,15.2670312 16.1184211,15.9210526 L16.1184211,15.9210526 L16.1184211,17.6973684 C16.1184211,18.3513898 15.6029594,18.8815789 14.9671053,18.8815789 L14.9671053,18.8815789 L12.6644737,18.8815789 C12.0286195,18.8815789 11.5131579,18.3513898 11.5131579,17.6973684 L11.5131579,17.6973684 L11.5131579,15.9210526 C11.5131579,15.2670312 12.0286195,14.7368421 12.6644737,14.7368421 L12.6644737,14.7368421 Z M29.2434211,14.7368421 C29.8792752,14.7368421 30.3947368,15.2670312 30.3947368,15.9210526 L30.3947368,15.9210526 L30.3947368,17.6973684 C30.3947368,18.3513898 29.8792752,18.8815789 29.2434211,18.8815789 L29.2434211,18.8815789 L26.9407895,18.8815789 C26.3049353,18.8815789 25.7894737,18.3513898 25.7894737,17.6973684 L25.7894737,17.6973684 L25.7894737,15.9210526 C25.7894737,15.2670312 26.3049353,14.7368421 26.9407895,14.7368421 L26.9407895,14.7368421 Z M22.3355263,14.7368421 C22.9713805,14.7368421 23.4868421,15.2670312 23.4868421,15.9210526 L23.4868421,15.9210526 L23.4868421,17.6973684 C23.4868421,18.3513898 22.9713805,18.8815789 22.3355263,18.8815789 L22.3355263,18.8815789 L20.0328947,18.8815789 C19.3970406,18.8815789 18.8815789,18.3513898 18.8815789,17.6973684 L18.8815789,17.6973684 L18.8815789,15.9210526 C18.8815789,15.2670312 19.3970406,14.7368421 20.0328947,14.7368421 L20.0328947,14.7368421 Z M8.05921053,14.7368421 C8.69506468,14.7368421 9.21052632,15.2670312 9.21052632,15.9210526 L9.21052632,15.9210526 L9.21052632,17.6973684 C9.21052632,18.3513898 8.69506468,18.8815789 8.05921053,18.8815789 L8.05921053,18.8815789 L5.75657895,18.8815789 C5.12072479,18.8815789 4.60526316,18.3513898 4.60526316,17.6973684 L4.60526316,17.6973684 L4.60526316,15.9210526 C4.60526316,15.2670312 5.12072479,14.7368421 5.75657895,14.7368421 L5.75657895,14.7368421 Z M14.9671053,15.9210526 L12.6644737,15.9210526 L12.6644737,17.6973684 L14.9671053,17.6973684 L14.9671053,15.9210526 Z M8.05921053,15.9210526 L5.75657895,15.9210526 L5.75657895,17.6973684 L8.05921053,17.6973684 L8.05921053,15.9210526 Z M29.2434211,15.9210526 L26.9407895,15.9210526 L26.9407895,17.6973684 L29.2434211,17.6973684 L29.2434211,15.9210526 Z M22.3355263,15.9210526 L20.0328947,15.9210526 L20.0328947,17.6973684 L22.3355263,17.6973684 L22.3355263,15.9210526 Z M5.83333333,4.67105263 L2.91666667,4.67105263 C1.95136503,4.67393829 1.16954962,5.4564885 1.16666667,6.42269737 L1.16666667,6.42269737 L1.16666667,10.5098684 L33.8333333,10.5098684 L33.8333333,6.42269737 C33.8304504,5.4564885 33.048635,4.67393829 32.0833333,4.67105263 L32.0833333,4.67105263 L29.1666667,4.67105263 L29.1666667,5.83881579 C29.1666667,7.12869136 28.1219977,8.17434211 26.8333333,8.17434211 C25.5446689,8.17434211 24.5,7.12869136 24.5,5.83881579 L24.5,5.83881579 L24.5,4.67105263 L19.8333333,4.67105263 L19.8333333,5.83881579 C19.8333333,7.12869136 18.7886644,8.17434211 17.5,8.17434211 C16.2113356,8.17434211 15.1666667,7.12869136 15.1666667,5.83881579 L15.1666667,5.83881579 L15.1666667,4.67105263 L10.5,4.67105263 L10.5,5.83881579 C10.5,7.12869136 9.45533108,8.17434211 8.16666667,8.17434211 C6.87800225,8.17434211 5.83333333,7.12869136 5.83333333,5.83881579 L5.83333333,5.83881579 L5.83333333,4.67105263 Z M26.8333333,1.16776316 C26.1890011,1.16776316 25.6666667,1.69058853 25.6666667,2.33552632 L25.6666667,2.33552632 L25.6666667,5.83881579 C25.6666667,6.48375357 26.1890011,7.00657895 26.8333333,7.00657895 C27.4776655,7.00657895 28,6.48375357 28,5.83881579 L28,5.83881579 L28,2.33552632 C28,1.69058853 27.4776655,1.16776316 26.8333333,1.16776316 Z M17.5,1.16776316 C16.8556678,1.16776316 16.3333333,1.69058853 16.3333333,2.33552632 L16.3333333,2.33552632 L16.3333333,5.83881579 C16.3333333,6.48375357 16.8556678,7.00657895 17.5,7.00657895 C18.1443322,7.00657895 18.6666667,6.48375357 18.6666667,5.83881579 L18.6666667,5.83881579 L18.6666667,2.33552632 C18.6666667,1.69058853 18.1443322,1.16776316 17.5,1.16776316 Z M8.16666667,1.16776316 C7.52233446,1.16776316 7,1.69058853 7,2.33552632 L7,2.33552632 L7,5.83881579 C7,6.48375357 7.52233446,7.00657895 8.16666667,7.00657895 C8.81099887,7.00657895 9.33333333,6.48375357 9.33333333,5.83881579 L9.33333333,5.83881579 L9.33333333,2.33552632 C9.33333333,1.69058853 8.81099887,1.16776316 8.16666667,1.16776316 Z" id="Combined-Shape"></path>
            </g>
        </g>
    </g>
</svg>