<?xml version="1.0" encoding="UTF-8"?>
<svg width="60px" height="60px" viewBox="0 0 60 60" version="1.1" xmlns="http://www.w3.org/2000/svg" xmlns:xlink="http://www.w3.org/1999/xlink">
    <title>Chromecast</title>
    <g id="Chromecast" stroke="none" stroke-width="1" fill="none" fill-rule="evenodd">
        <path d="M0,24.09088 L0,29.545472 C13.5545977,29.545472 24.545472,40.5363463 24.545472,54.090944 L30.0000639,54.090944 C30.0000639,37.5227504 16.5681936,24.09088 0,24.09088 Z M0,35.0000639 L0,40.454528 C7.52727807,40.454528 13.6364159,46.5636659 13.6364159,54.090944 L19.09088,54.090944 C19.09088,43.55007 10.540874,35.0000639 0,35.0000639 Z M0,45.90912 L0,54.090944 L8.18182399,54.090944 C8.18182399,49.5772618 4.51368218,45.90912 0,45.90912 Z M54.5455359,5 L5.45459194,5 C2.44086821,5 0,7.44086821 0,10.4545919 L0,18.6364159 L5.45459194,18.6364159 L5.45459194,10.4545919 L54.5455359,10.4545919 L54.5455359,48.636352 L35.454528,48.636352 L35.454528,54.090944 L54.5455359,54.090944 C57.5591318,54.090944 60,51.6500757 60,48.636352 L60,10.4545919 C60,7.44086821 57.5591318,5 54.5455359,5 L54.5455359,5 Z" id="Chromecast-Copy" fill="#FFFFFF"></path>
    </g>
</svg>