<?xml version="1.0" encoding="UTF-8"?>
<svg width="55px" height="55px" viewBox="0 0 55 55" version="1.1" xmlns="http://www.w3.org/2000/svg" xmlns:xlink="http://www.w3.org/1999/xlink">
    <title>hotel_info_icon</title>
    <g id="Page-1" stroke="none" stroke-width="1" fill="none" fill-rule="evenodd">
        <path d="M45.2246094,0 L45.2246094,12.890625 L55,12.890625 L55,55 L0,55 L0,12.890625 L9.77539062,12.890625 L9.77539062,0 L45.2246094,0 Z M9.77539062,16.1132812 L3.22265625,16.1132812 L3.22265625,51.7773438 L9.77539062,51.7773438 L9.77539062,16.1132812 Z M30.7226562,41.8945312 L24.2773438,41.8945312 L24.2773438,51.7773438 L30.7226562,51.7773438 L30.7226562,41.8945312 Z M42.0019531,3.22265625 L12.9980469,3.22265625 L12.9980469,3.22265625 L12.9980469,51.7773438 L21.0546875,51.7773438 L21.0546875,38.671875 L33.9453125,38.671875 L33.9453125,51.7773438 L42.0019531,51.7773438 L42.0019531,3.22265625 Z M51.7773438,16.1132812 L45.2246094,16.1132812 L45.2246094,51.7773438 L51.7773438,51.7773438 L51.7773438,16.1132812 Z M19,33 L19,36 L16,36 L16,33 L19,33 Z M26,33 L26,36 L23,36 L23,33 L26,33 Z M32,33 L32,36 L29,36 L29,33 L32,33 Z M39,33 L39,36 L36,36 L36,33 L39,33 Z M19,26 L19,29 L16,29 L16,26 L19,26 Z M26,26 L26,29 L23,29 L23,26 L26,26 Z M32,26 L32,29 L29,29 L29,26 L32,26 Z M39,26 L39,29 L36,29 L36,26 L39,26 Z M19,19 L19,22 L16,22 L16,19 L19,19 Z M26,19 L26,22 L23,22 L23,19 L26,19 Z M32,19 L32,22 L29,22 L29,19 L32,19 Z M39,19 L39,22 L36,22 L36,19 L39,19 Z M19,13 L19,16 L16,16 L16,13 L19,13 Z M26,13 L26,16 L23,16 L23,13 L26,13 Z M32,13 L32,16 L29,16 L29,13 L32,13 Z M39,13 L39,16 L36,16 L36,13 L39,13 Z M19,7 L19,10 L16,10 L16,7 L19,7 Z M26,7 L26,10 L23,10 L23,7 L26,7 Z M32,7 L32,10 L29,10 L29,7 L32,7 Z M39,7 L39,10 L36,10 L36,7 L39,7 Z" id="hotel_info_icon" fill="#FFFFFF" fill-rule="nonzero"></path>
    </g>
</svg>