<?xml version="1.0" encoding="UTF-8"?>
<svg width="46px" height="46px" viewBox="0 0 46 46" version="1.1" xmlns="http://www.w3.org/2000/svg" xmlns:xlink="http://www.w3.org/1999/xlink">
    <title>info</title>
    <g id="Page-1" stroke="none" stroke-width="1" fill="none" fill-rule="evenodd">
        <g id="06_cart-extention" transform="translate(-76.000000, -793.000000)">
            <g id="info" transform="translate(76.000000, 793.000000)">
                <circle id="Oval" stroke="#979797" stroke-width="2" cx="23" cy="23" r="22"></circle>
                <text id="i" font-family="Quicksand-Bold, Quicksand" font-size="26" font-weight="bold" fill="#B38989">
                    <tspan x="20" y="33">i</tspan>
                </text>
            </g>
        </g>
    </g>
</svg>