<?xml version="1.0" encoding="UTF-8"?>
<svg width="52px" height="52px" viewBox="0 0 52 52" version="1.1" xmlns="http://www.w3.org/2000/svg" xmlns:xlink="http://www.w3.org/1999/xlink">
    <title>ird_icon</title>
    <g id="Page-1" stroke="none" stroke-width="1" fill="none" fill-rule="evenodd">
        <path d="M28.0634921,0 L28.0634921,1.65079365 L26.412,1.65 L26.4128343,4.13060396 C38.6149024,4.34476013 48.4967746,14.034253 48.695366,25.9868302 L48.6984127,26.3538059 L48.6984127,27.208649 C48.6984127,27.2187505 48.6982345,27.2288107 48.6978811,27.2388267 L51.133467,27.2380952 C51.6127414,27.2380952 52,27.6071093 52,28.0634679 C52,31.2486924 49.277815,33.8412698 45.9333553,33.8412698 L45.9333553,33.8412698 L45.585,33.841 L45.5957393,33.8549748 C45.6220161,33.8906089 45.6483182,33.9286101 45.6743045,33.9682403 L45.7509746,34.0912798 C46.6444872,35.5995188 46.2322445,37.5785353 44.811983,38.5978743 L44.811983,38.5978743 L34.3568449,47.3005376 C33.2787883,48.1997388 31.9144155,48.6966819 30.5138616,48.6984127 L30.5138616,48.6984127 L10.73,48.698 L10.7301587,51.1311934 C10.7301587,51.5747093 10.387964,51.9397115 9.9461589,51.9932414 L9.8337728,52 L0,52 L0,50.2623868 L8.93728182,50.2623868 L8.93665924,48.6795376 C8.54678986,48.596345 8.25396825,48.2479144 8.25396825,47.8296532 L8.25396825,47.8296532 L8.25396825,37.4041318 C8.25396825,37.3448868 8.25996935,37.2863721 8.27159705,37.2293668 L0,37.2297785 L0,35.4920635 L9.8337728,35.4920635 C9.89896848,35.4920635 9.96254635,35.4988058 10.0238008,35.5116129 L12.016,33.841 L6.06664466,33.8412698 C2.79740141,33.8412698 0.124021012,31.3651977 0.00419237999,28.2797004 L0,28.0634679 C0,27.6070125 0.388274196,27.2380952 0.866634505,27.2380952 L0.866634505,27.2380952 L3.303,27.238 L3.3015873,27.208649 L3.3015873,26.3538059 C3.3015873,14.5052592 12.8194044,4.79174781 24.7612207,4.15968992 L24.761,1.65 L23.1111111,1.65079365 L23.1111111,0 L28.0634921,0 Z M4.12698413,43.7460317 C5.49217758,43.7460317 6.6031746,44.8570288 6.6031746,46.2222222 C6.6031746,47.5874157 5.49217758,48.6984127 4.12698413,48.6984127 C2.76179067,48.6984127 1.65079365,47.5874157 1.65079365,46.2222222 C1.65079365,44.8570288 2.76179067,43.7460317 4.12698413,43.7460317 Z M4.12698413,45.3968576 C3.67217758,45.3968576 3.30161954,45.7666419 3.30161954,46.2222222 C3.30161954,46.6778026 3.67217758,47.0475868 4.12698413,47.0475868 C4.58179067,47.0475868 4.95234871,46.6778026 4.95234871,46.2222222 C4.95234871,45.7666419 4.58179067,45.3968576 4.12698413,45.3968576 Z M26.7544588,33.9278708 L15.5154633,33.9286865 C14.925549,33.9338789 14.3451347,34.1494143 13.8863012,34.5342626 L13.8863012,34.5342626 L10.73,37.18 L10.73,46.96 L30.512851,46.96069 C31.4283451,46.9591035 32.3242222,46.6611712 33.0610608,46.1162985 L33.257969,45.9616115 L43.763134,37.220667 C44.5047464,36.6854427 44.7074821,35.7185367 44.2709839,34.9825397 C44.2485475,34.9451748 44.2253027,34.9087262 44.1994301,34.8730921 C43.9398961,34.5081988 43.5621164,34.2718938 43.1300651,34.1998111 C42.6971041,34.1303755 42.2650527,34.2302528 41.9097094,34.4874292 L41.9097094,34.4874292 L32.0419591,41.5863541 C31.8935962,41.6914238 31.7185523,41.7479293 31.5391625,41.7479293 L31.5391625,41.7479293 L21.1901424,41.7479293 C19.7637159,41.7479293 18.6028873,40.5785198 18.6028873,39.141549 C18.6028873,37.7045782 19.7637159,36.5351686 21.1901424,36.5351686 L21.1901424,36.5351686 L26.7958953,36.5351686 C27.5091085,36.5351686 28.0895228,35.9504638 28.0895228,35.2319784 C28.0661769,34.4717502 27.4693901,33.9269557 26.7544588,33.9278708 L26.7544588,33.9278708 Z M39.839,33.841 L29.4784748,33.8412301 C29.67831,34.2294568 29.7977919,34.6673866 29.8126751,35.1339337 C29.8134836,35.1425877 29.8143932,35.22251 29.8143932,35.2320803 C29.8143932,36.9089195 28.460329,38.2728913 26.7958953,38.2728913 L26.7958953,38.2728913 L21.1901424,38.2728913 C20.7149364,38.2728913 20.3277577,38.6621175 20.3277577,39.1416508 C20.3277577,39.621184 20.7149364,40.0104103 21.1901424,40.0104103 L21.1901424,40.0104103 L31.2631549,40.0104103 L39.839,33.841 Z M50.1791839,28.8889373 L1.82081606,28.8889373 C2.22300434,30.7699898 3.97364057,32.1905246 6.06664466,32.1905246 L6.06664466,32.1905246 L45.9334569,32.1905246 C48.026461,32.1905246 49.7770972,30.7699898 50.1791839,28.8889373 L50.1791839,28.8889373 Z M26.0000512,5.83667029 C14.4473825,5.83667029 5.04765446,15.0410852 5.04765446,26.3537057 L5.04765446,26.3537057 L46.9524478,26.3537057 C46.9524478,15.0410852 37.5527198,5.83667029 26.0000512,5.83667029 Z M12.1242458,14.8571429 L13.2063492,15.7690466 C12.7460078,16.2600036 12.3190024,16.78669 11.9367842,17.3333333 L11.9367842,17.3333333 L10.7301587,16.574567 C11.1492755,15.97441 11.618269,15.3968656 12.1242458,14.8571429 L12.1242458,14.8571429 Z M26.4117733,7.42857143 L26.4126984,9.20628511 C21.9348252,9.20888913 17.6710652,10.9225439 14.4080758,14.031746 L14.4080758,14.031746 L13.2063492,12.7367139 C16.7955964,9.3173206 21.4857325,7.43127961 26.4117733,7.42857143 L26.4117733,7.42857143 Z" id="ird_icon" fill="#494237" fill-rule="nonzero"></path>
    </g>
</svg>