<?xml version="1.0" encoding="UTF-8"?>
<svg width="53px" height="49px" viewBox="0 0 53 49" version="1.1" xmlns="http://www.w3.org/2000/svg" xmlns:xlink="http://www.w3.org/1999/xlink">
    <title>live_tv_icon</title>
    <g id="Page-1" stroke="none" stroke-width="1" fill="none" fill-rule="evenodd">
        <path d="M49.1730625,4 C51.283243,4 53,5.7520843 53,7.90568793 L53,7.90568793 L53,35.8786237 C53,38.0322273 51.283243,39.7843117 49.1729588,39.7842058 L49.1729588,39.7842058 L49.0150711,39.7842058 L52.2693416,47.5963223 C52.3995497,47.9087562 52.3677234,48.2644632 52.1841257,48.5476956 C52.0006318,48.8309281 51.6923205,49 51.359647,49 L51.359647,49 L49.615003,49 C49.3532391,49 49.0972805,48.8911295 48.9129572,48.7013204 L48.9129572,48.7013204 L40.2563967,39.7843117 L38.7392023,39.7843117 L38.7392023,41.962673 C38.7392023,42.9363706 37.9630332,43.7285116 37.0089683,43.7285116 L37.0089683,43.7285116 L28.5842114,43.7285116 C27.6300429,43.7285116 26.8538738,42.9363706 26.8538738,41.962673 L26.8538738,41.962673 L26.8538738,39.7843117 L12.7436033,39.7843117 L4.08714643,48.7012146 C3.90271945,48.8911295 3.6468646,49 3.38499696,49 L3.38499696,49 L1.64035302,49 C1.30767952,49 0.999471875,48.8309281 0.815874252,48.5476956 C0.632276628,48.2644632 0.600450275,47.908862 0.730658415,47.5963223 L0.730658415,47.5963223 L3.98482522,39.7843117 L3.82693748,39.7843117 C1.716757,39.7843117 0,38.0322273 0,35.8786237 L0,35.8786237 L0,19.0745905 C0,18.6363579 0.34812017,18.2810741 0.777516758,18.2810741 C1.20691335,18.2810741 1.55503352,18.6363579 1.55503352,19.0745905 L1.55503352,19.0745905 L1.55503352,35.8786237 C1.55503352,37.1571374 2.57430615,38.1972788 3.82693748,38.1972788 L3.82693748,38.1972788 L49.1730625,38.1972788 C50.4257975,38.1972788 51.4449665,37.1571374 51.4449665,35.8786237 L51.4449665,35.8786237 L51.4449665,7.90568793 C51.4449665,6.62717424 50.4256938,5.58703288 49.1730625,5.58703288 L49.1730625,5.58703288 L45.7426586,5.58703288 C45.313262,5.58703288 44.9651418,5.23174912 44.9651418,4.79351644 C44.9651418,4.35528376 45.313262,4 45.7426586,4 L45.7426586,4 Z M10.5546345,39.7842058 L5.67462831,39.7842058 L2.49676181,47.4129671 L3.14873553,47.4129671 L10.5546345,39.7842058 Z M47.3254754,39.7842058 L42.4454692,39.7842058 L49.8513681,47.4129671 L50.5033419,47.4129671 L47.3254754,39.7842058 Z M37.1841688,39.7843117 L28.4089073,39.7843117 L28.4089073,41.962673 C28.4089073,42.0612806 28.4874883,42.1414787 28.5842114,42.1414787 L28.5842114,42.1414787 L37.0089683,42.1414787 C37.1055878,42.1414787 37.1841688,42.0612806 37.1841688,41.962673 L37.1841688,41.962673 L37.1841688,39.7843117 Z M49.2316664,8 C49.6559914,8 50,8.35001923 50,8.78175826 L50,8.78175826 L50,36.2182417 C50,36.6499808 49.6559914,37 49.2316664,37 L49.2316664,37 L11.7683336,37 C11.3440086,37 11,36.6499808 11,36.2182417 C11,35.7865027 11.3440086,35.4364835 11.7683336,35.4364835 L11.7683336,35.4364835 L48.4633328,35.4364835 L48.4633328,9.56351651 L28.9875097,9.56351651 C28.5631846,9.56351651 28.219176,9.21349728 28.219176,8.78175826 C28.219176,8.35001923 28.5631846,8 28.9875097,8 L28.9875097,8 Z M3.83977158,19 C4.30354943,19 4.67954316,19.3537054 4.67954316,19.7899911 L4.67954316,19.7899911 L4.67954316,35.4200178 L8.16022842,35.4200178 C8.62400627,35.4200178 9,35.7737231 9,36.2100089 C9,36.6462946 8.62400627,37 8.16022842,37 L8.16022842,37 L3.83977158,37 C3.37599373,37 3,36.6462946 3,36.2100089 L3,36.2100089 L3,19.7899911 C3,19.3537054 3.37599373,19 3.83977158,19 Z M5.40889951,0 C5.84982967,0 6.20730034,0.350293926 6.20730034,0.782371783 C6.20730034,1.21444964 5.84982967,1.56474357 5.40889951,1.56474357 L5.40889951,1.56474357 L2.30961393,1.56474357 C1.91658781,1.56474357 1.59680167,1.87821386 1.59680167,2.26334941 L1.59680167,2.26334941 L1.59680167,14.7367549 C1.59680167,15.1219948 1.91658781,15.4353608 2.30961393,15.4353608 L2.30961393,15.4353608 L24.6903861,15.4353608 C25.0834122,15.4353608 25.4031983,15.1219948 25.4031983,14.7367549 L25.4031983,14.7367549 L25.4031983,2.26334941 C25.4031983,1.87810954 25.0834122,1.56474357 24.6903861,1.56474357 L24.6903861,1.56474357 L8.81147095,1.56474357 C8.37054078,1.56474357 8.01307012,1.21444964 8.01307012,0.782371783 C8.01307012,0.350293926 8.37054078,0 8.81147095,0 L8.81147095,0 L24.6903861,0 C25.9638886,0 27,1.01530994 27,2.26334941 L27,2.26334941 L27,14.7366506 C27,15.9846901 25.9638886,17 24.6903861,17 L24.6903861,17 L2.30961393,17 C1.03611137,17 0,15.9846901 0,14.7367549 L0,14.7367549 L0,2.26334941 C0,1.01530994 1.03611137,0 2.30961393,0 L2.30961393,0 Z M4.80753701,5 C5.25351279,5 5.61507402,5.33111706 5.61507402,5.73954078 L5.61507402,5.73954078 L5.61507402,10.5209184 L7.19246299,10.5209184 C7.63843876,10.5209184 8,10.8520355 8,11.2604592 C8,11.6688829 7.63843876,12 7.19246299,12 L7.19246299,12 L4.80753701,12 C4.36156124,12 4,11.6688829 4,11.2604592 L4,11.2604592 L4,5.73954078 C4,5.33111706 4.36156124,5 4.80753701,5 Z M10,5 C10.5522667,5 11,5.33111706 11,5.73954078 L11,5.73954078 L11,11.2604592 C11,11.6688829 10.5522667,12 10,12 C9.44773333,12 9,11.6688829 9,11.2604592 L9,11.2604592 L9,5.73954078 C9,5.33111706 9.44773333,5 10,5 Z M14.6490752,5.54384325 C14.7496582,5.15002725 15.1281511,4.91831278 15.4943576,5.02667627 C15.8605641,5.13484256 16.0758502,5.54187121 15.9752672,5.93568721 L15.9752672,5.93568721 L14.5649045,11.4564077 C14.4828427,11.7779485 14.2109844,12 13.9019919,12 C13.8978659,12 13.8936482,11.9999014 13.8895222,11.9999014 C13.5753951,11.9938867 13.3049121,11.75951 13.2325693,11.4306726 L13.2325693,11.4306726 L12.0186048,5.90995211 C11.9312251,5.51248784 12.1599895,5.11403756 12.5295885,5.02006994 C12.8990959,4.92590513 13.2697034,5.17211408 13.3570832,5.56957834 L13.3570832,5.56957834 L13.9516874,8.27373551 Z M21.2426155,5 C21.6608937,5 22,5.33112172 22,5.7395512 C22,6.14798067 21.6608937,6.4791024 21.2426155,6.4791024 L21.2426155,6.4791024 L19.514668,6.4791024 L19.514668,7.85900632 L20.4970462,7.85900632 C20.9153244,7.85900632 21.2544307,8.19012805 21.2544307,8.59855752 C21.2544307,9.006987 20.9153244,9.33810872 20.4970462,9.33810872 L20.4970462,9.33810872 L19.514668,9.33810872 L19.514668,10.5208976 L21.2426155,10.5208976 C21.6608937,10.5208976 22,10.8520193 22,11.2604488 C22,11.6688783 21.6608937,12 21.2426155,12 L21.2426155,12 L19.2141378,12 C18.5447109,12 18,11.4681148 18,10.8143515 L18,10.8143515 L18,6.18554987 C18,5.53188522 18.5446099,5 19.2141378,5 L19.2141378,5 Z M42.2406037,4 C42.659993,4 43,4.44773333 43,5 C43,5.55226667 42.659993,6 42.2406037,6 L42.2406037,6 L28.7593963,6 C28.340007,6 28,5.55226667 28,5 C28,4.44773333 28.340007,4 28.7593963,4 L28.7593963,4 Z" id="live_tv_icon" fill="#494237" fill-rule="nonzero"></path>
    </g>
</svg>