<?xml version="1.0" encoding="UTF-8"?>
<svg width="219px" height="113px" viewBox="0 0 219 113" version="1.1" xmlns="http://www.w3.org/2000/svg" xmlns:xlink="http://www.w3.org/1999/xlink">
    <title>H_simplymagic _white</title>
    <defs>
        <polygon id="path-1" points="0 0 42 0 42 57 0 57"></polygon>
    </defs>
    <g id="Page-1" stroke="none" stroke-width="1" fill="none" fill-rule="evenodd">
        <g id="welcome-screen" transform="translate(-178.000000, -109.000000)">
            <g id="H_simplymagic-_white" transform="translate(178.000000, 109.000000)">
                <g id="Group-3" transform="translate(0.000000, 0.000000)">
                    <mask id="mask-2" fill="white">
                        <use xlink:href="#path-1"></use>
                    </mask>
                    <g id="Clip-2"></g>
                    <path d="M14.8669978,30.729972 C16.6926049,29.1406162 18.5259382,27.8890756 20.3565121,26.9837535 C22.1870861,26.0823529 24.2488962,25.6369748 26.5485651,25.6369748 C29.7356512,25.6369748 32.2615894,26.5507003 34.1197572,28.3820728 C35.9724062,30.210084 36.9006623,32.6689076 36.9006623,35.7394958 L36.9006623,50.7047619 C36.9006623,51.6666667 37.0573951,52.4442577 37.3714128,53.0616246 C37.6865342,53.6717087 38.0877483,54.1462185 38.5866446,54.4946779 C39.0855408,54.8386555 39.6346578,55.0739496 40.2345475,55.2128852 C40.839404,55.3394958 41.4221854,55.4084034 42,55.4084034 L42,57 C41.4773731,56.9490196 40.9266004,56.9019608 40.3520971,56.880112 C39.7753863,56.8593838 39.1092715,56.8285714 38.3504415,56.8039216 C37.593819,56.7731092 36.7163355,56.752381 35.7279249,56.7148459 C34.7328918,56.6969188 33.5573951,56.6778711 32.1975717,56.6778711 C29.6357616,56.6778711 27.6219647,56.7064426 26.1528698,56.7585434 C24.6937086,56.8123249 23.5143488,56.8935574 22.6324503,57 L22.6324503,55.4084034 C23.2041943,55.4084034 23.7930464,55.3394958 24.3879691,55.2128852 C24.9917219,55.0739496 25.5298013,54.8386555 26.0033113,54.4946779 C26.4735099,54.1462185 26.8631347,53.6717087 27.1738411,53.0616246 C27.4922737,52.4442577 27.6501104,51.6666667 27.6501104,50.7047619 L27.6501104,35.9058824 C27.6501104,34.0980392 27.0331126,32.7848739 25.7996689,31.9635854 C24.5756071,31.1389356 23.1241722,30.729972 21.4536424,30.729972 C20.1942605,30.729972 19.0121413,31.0190476 17.8857616,31.605042 C16.7626932,32.1876751 15.7527594,32.9372549 14.8669978,33.8364146 L14.8669978,50.7047619 C14.8669978,51.6666667 15.0204194,52.4442577 15.334989,53.0616246 C15.6506623,53.6717087 16.053532,54.1462185 16.5469095,54.4946779 C17.0452539,54.8386555 17.5987859,55.0739496 18.1981236,55.2128852 C18.7996689,55.3394958 19.3857616,55.4084034 19.9624724,55.4084034 L19.9624724,57 C19.4442605,56.9490196 18.8890728,56.9019608 18.312362,56.880112 C17.7422737,56.8593838 17.0717439,56.8285714 16.3178808,56.8039216 C15.5596026,56.7731092 14.6793598,56.752381 13.6870861,56.7148459 C12.6942605,56.6969188 11.51766,56.6778711 10.1611479,56.6778711 C7.59492274,56.6778711 5.5584989,56.7064426 4.04359823,56.7585434 C2.52704194,56.8123249 1.16390728,56.8935574 -0.0331125828,57 L-0.0331125828,55.4084034 C1.42715232,55.4084034 2.73785872,55.1014006 3.88300221,54.4946779 C5.03642384,53.8812325 5.61258278,52.6229692 5.61258278,50.7047619 L5.61258278,7.32436975 C5.61258278,4.66778711 3.88300221,3.34285714 0.438189845,3.34285714 L0.438189845,1.7512605 C2.99448124,1.64257703 5.5584989,1.46386555 8.12086093,1.19719888 C10.6788079,0.922128852 12.9288079,0.528291317 14.8669978,0 L14.8669978,30.729972" id="Fill-1" fill="#FFFEFE" mask="url(#mask-2)"></path>
                </g>
                <path d="M78.3898432,50.2155163 C78.3898432,51.5849482 78.8313935,52.5866468 79.7150425,53.2139564 C80.5932065,53.8423753 82.0270108,54.1607446 84,54.1607446 L84,55.7365064 C81.1921791,55.8463272 78.5044817,55.9589212 75.9341655,56.0903733 C73.3622037,56.2184976 71.108926,56.5246646 69.1940788,57 L69.1940788,52.3503657 C67.530449,53.5550664 65.7346284,54.6355254 63.814296,55.5745485 C61.8879301,56.5246646 59.7898807,57 57.4982073,57 C54.6903864,57 52.426687,56.1358547 50.7147884,54.4003536 C49.0039867,52.6659618 48.1433751,50.0657607 48.1433751,46.5969772 L48.1433751,31.7722813 C48.1433751,29.1482303 46.4287339,27.8331542 43,27.8331542 L43,26.2579471 C45.5467303,26.1542275 48.0923637,26.0371962 50.6396425,25.9051894 C53.1836303,25.7759559 55.4193557,25.4681249 57.339688,25 L57.339688,46.0362256 C57.339688,47.8809928 57.8075668,49.3003432 58.7438727,50.2976046 C59.6796302,51.2909835 60.9521726,51.7929421 62.5653395,51.7929421 C64.0194386,51.7929421 65.2667496,51.5627622 66.3067239,51.0818803 C67.3439557,50.6120914 68.3049446,49.9564946 69.1940788,49.1145353 L69.1940788,31.7722813 C69.1940788,30.4106146 68.7437523,29.4139079 67.8661369,28.7810518 C66.9830363,28.1526329 65.5514261,27.8331542 63.5778884,27.8331542 L63.5778884,26.2579471 C66.3829668,26.1542275 69.0766977,26.0371962 71.647014,25.9051894 C74.2173302,25.7759559 76.4700594,25.4681249 78.3898432,25 L78.3898432,50.2155163" id="Fill-4" fill="#FFFEFE"></path>
                <path d="M113.535475,34.0537798 C112.691895,32.3915851 111.796938,31.0390203 110.830163,30.0219797 C109.852892,29.0038373 108.377871,28.4986226 106.392945,28.4986226 C104.61187,28.4986226 103.158393,28.8578374 102.03362,29.5916933 C100.911057,30.3255493 100.023282,31.2593974 99.3647699,32.41197 C98.7117828,33.5617878 98.2670665,34.8493413 98.0350406,36.2878532 C97.7947281,37.7236103 97.6792676,39.1439411 97.6792676,40.5538039 C97.6792676,41.806648 97.7947281,43.1503977 98.0350406,44.5861549 C98.2670665,46.022463 98.6841607,47.3315033 99.2868755,48.5022569 C99.8912477,49.6697049 100.697814,50.652587 101.722595,51.4349259 C102.741851,52.2167139 104.036224,52.6095361 105.606819,52.6095361 C107.750848,52.6095361 109.481651,52.1180951 110.789283,51.1225413 C112.094704,50.1369045 113.012864,48.8757962 113.535475,47.3667636 L113.535475,34.0537798 Z M122.408808,47.5089069 C122.408808,48.6118946 122.457975,49.562271 122.564044,50.3716061 C122.662931,51.1847978 122.928656,51.8552953 123.347407,52.3753854 C123.763949,52.8949246 124.418594,53.286645 125.314103,53.5516485 C126.197459,53.8061841 127.428853,53.9406142 129,53.9406142 L129,55.5085976 C127.588509,55.5085976 126.121222,55.5311863 124.606424,55.5840768 C123.089969,55.6380692 121.633178,55.7014276 120.245995,55.775254 C118.857707,55.8628539 117.588746,55.9510047 116.443532,56.0556839 C115.286718,56.1587102 114.318286,56.2628384 113.535475,56.3686195 L113.535475,53.3114374 C111.699156,54.414425 109.914214,55.3008921 108.160761,55.9807557 C106.399574,56.6507022 104.399179,57 102.155157,57 C99.8514719,57 97.7709731,56.6005664 95.914766,55.8182275 C94.0513772,55.0380924 92.4570279,53.9406142 91.1168021,52.533506 C89.7854155,51.1225413 88.7661589,49.4416146 88.0640044,47.4841145 C87.3535633,45.5249616 87,43.3966692 87,41.1008902 C87,38.5974057 87.5237156,36.3501097 88.5722516,34.3678172 C89.617473,32.3915851 90.9919501,30.7178206 92.6934733,29.3569917 C94.3916818,28.0016722 96.3423566,26.9681033 98.5438403,26.2645492 C100.73538,25.5598933 103.018073,25.2122483 105.373136,25.2122483 C106.04822,25.2122483 107.184042,25.4271161 108.783364,25.8728289 C110.385447,26.3190926 111.831742,26.9350467 113.142688,27.7129781 L113.142688,7.20302729 C113.142688,5.83999459 112.691895,4.85711248 111.811301,4.22573193 C110.918554,3.60426836 109.374477,3.2874762 107.180728,3.2874762 L107.180728,1.72224746 C110.159498,1.61536454 112.958172,1.43961376 115.575093,1.17736495 C118.193118,0.90685199 120.470286,0.519539141 122.408808,7.73070497e-12 L122.408808,47.5089069 L122.408808,47.5089069 Z" id="Fill-5" fill="#FFFEFE"></path>
                <path d="M145.447031,50.6722719 C145.447031,52.5983958 146.01057,53.8637163 147.119451,54.4789277 C148.239036,55.0868219 149.533087,55.3963977 151,55.3963977 L151,57 C150.337454,56.9437135 149.681866,56.9020615 149.027347,56.8767326 C148.364266,56.8519665 147.65302,56.8226975 146.897889,56.8007458 C146.134195,56.7692254 145.273099,56.745585 144.312462,56.7106874 C143.34112,56.6943643 142.207621,56.6735383 140.885205,56.6735383 C138.404672,56.6735383 136.424527,56.7033702 134.954403,56.7545909 C133.484279,56.8097516 132.163469,56.8936185 131,57 L131,55.3963977 C132.419818,55.3963977 133.687646,55.0868219 134.801878,54.4789277 C135.917717,53.8637163 136.475369,52.5983958 136.475369,50.6722719 L136.475369,32.3656512 C136.475369,30.9753747 136.044553,29.9605291 135.183458,29.3216773 C134.319151,28.6839513 132.924487,28.3597411 131,28.3597411 L131,26.7595159 C133.738487,26.654823 136.374756,26.4724548 138.907201,26.1994653 C141.441251,25.933793 143.699152,25.5330331 145.677691,25 C145.62899,26.3356786 145.574403,27.6409625 145.524631,28.9214803 C145.476466,30.2003096 145.447031,31.4509956 145.447031,32.6808556 L145.447031,50.6722719" id="Fill-6" fill="#FFFEFE"></path>
                <path d="M168.708468,30.034046 C170.544951,28.463087 172.377006,27.2260329 174.212382,26.3311898 C176.049972,25.4402229 178.121135,25 180.427532,25 C183.623389,25 186.152843,25.9031492 188.014786,27.7133237 C189.877283,29.5201758 190.811576,31.9505386 190.811576,34.9855849 L190.811576,49.7776289 C190.811576,50.7283997 190.967107,51.4969902 191.278722,52.1072111 C191.593105,52.7102335 192.001581,53.1792508 192.49917,53.5236768 C192.996205,53.8636729 193.550249,54.0962435 194.155768,54.2335709 C194.755199,54.358716 195.374002,54.426826 196,54.426826 L196,56 C194.89966,55.9496097 193.654859,55.8814997 192.260615,55.8061912 C190.871906,55.7181466 188.816794,55.6815998 186.088084,55.6815998 C183.521547,55.6815998 181.497984,55.7098405 180.034,55.7613383 C178.567249,55.8144973 177.385546,55.8947895 176.49664,56 L176.49664,54.426826 C177.07227,54.426826 177.666719,54.358716 178.263383,54.2335709 C178.86392,54.0962435 179.409109,53.8636729 179.877362,53.5236768 C180.350043,53.1792508 180.739701,52.7102335 181.056851,52.1072111 C181.371788,51.4969902 181.527319,50.7283997 181.527319,49.7776289 L181.527319,35.1500455 C181.527319,33.6289231 180.953902,32.3902077 179.795446,31.4466356 C178.646398,30.5002947 177.15308,30.034046 175.318257,30.034046 C174.058512,30.034046 172.862418,30.3197756 171.738831,30.8989872 C170.609156,31.4748763 169.599035,32.2157798 168.708468,33.1045317 L168.708468,49.7776289 C168.708468,50.7283997 168.860678,51.4969902 169.178936,52.1072111 C169.497747,52.7102335 169.89792,53.1792508 170.399383,53.5236768 C170.896418,53.8636729 171.447142,54.0962435 172.04934,54.2335709 C172.655412,54.358716 173.242113,54.426826 173.819957,54.426826 L173.819957,56 C173.294694,55.9496097 172.747292,55.9030956 172.167787,55.8814997 C171.588835,55.8610114 170.922986,55.8305557 170.166917,55.8061912 C169.404207,55.7757355 168.524709,55.7552471 167.526765,55.7181466 C166.530482,55.7004269 165.35376,55.6815998 163.988851,55.6815998 C161.418439,55.6815998 159.383806,55.7098405 157.892148,55.7613383 C156.394955,55.8144973 155.099787,55.8947895 154,56 L154,54.426826 C154.680794,54.426826 155.348304,54.358716 156.004744,54.2335709 C156.657864,54.0962435 157.236815,53.8636729 157.73551,53.5236768 C158.232545,53.1792508 158.640468,52.7102335 158.958172,52.1072111 C159.26868,51.4969902 159.427532,50.7283997 159.427532,49.7776289 L159.427532,31.7655896 C159.427532,29.1425254 157.696766,27.8301627 154.238555,27.8301627 L154.238555,26.2525588 C156.805646,26.1495633 159.376058,26.0294018 161.942042,25.9031492 C164.511347,25.7730204 166.765715,25.4679099 168.708468,25 L168.708468,30.034046" id="Fill-7" fill="#FFFEFE"></path>
                <path d="M213.44941,50.6722719 C213.44941,52.5983958 214.007091,53.8637163 215.12299,54.4789277 C216.237282,55.0868219 217.530868,55.3963977 219,55.3963977 L219,57 C218.34063,56.9437135 217.684471,56.9020615 217.025101,56.8767326 C216.36252,56.8519665 215.655517,56.8226975 214.891247,56.8007458 C214.136611,56.7692254 213.267441,56.745585 212.307287,56.7106874 C211.342316,56.6943643 210.201263,56.6735383 208.88841,56.6735383 C206.402392,56.6735383 204.427493,56.7033702 202.953544,56.7545909 C201.480666,56.8097516 200.164066,56.8936185 199,57 L199,55.3963977 C200.418288,55.3963977 201.683508,55.0868219 202.804758,54.4789277 C203.918515,53.8637163 204.47245,52.5983958 204.47245,50.6722719 L204.47245,32.3656512 C204.47245,30.9753747 204.046964,29.9605291 203.1794,29.3216773 C202.320934,28.6839513 200.92459,28.3597411 199,28.3597411 L199,26.7595159 C201.733817,26.654823 204.373973,26.4724548 206.907089,26.1994653 C209.44288,25.933793 211.698761,25.5330331 213.681688,25 C213.622816,26.3356786 213.575718,27.6409625 213.523803,28.9214803 C213.474029,30.2003096 213.44941,31.4509956 213.44941,32.6808556 L213.44941,50.6722719" id="Fill-8" fill="#FFFEFE"></path>
                <path d="M215,15.9994717 C215,18.760989 212.763749,21 210.001321,21 C207.240478,21 205,18.760989 205,15.9994717 C205,13.2368977 207.240478,11 210.001321,11 C212.763749,11 215,13.2368977 215,15.9994717" id="Fill-9" fill="#FFFEFE"></path>
                <path d="M146,15.9994717 C146,18.760989 143.76322,21 141.000264,21 C138.239421,21 136,18.760989 136,15.9994717 C136,13.2368977 138.239421,11 141.000264,11 C143.76322,11 146,13.2368977 146,15.9994717" id="Fill-10" fill="#FFFEFE"></path>
                <path d="M101.446588,94.1962117 C100.694636,94.5679003 99.9642315,94.9614208 99.3001272,95.442269 C98.3708231,96.1201504 97.6183189,97.0381829 97.4409665,98.1969125 C97.3525666,98.6995926 97.4188666,99.2683144 97.7072713,99.7054987 C98.016671,100.208179 98.5918229,100.33917 99.1454273,100.361002 C100.273631,100.404666 101.490787,100.142683 102.376444,99.4211379 C103.195248,98.7432565 103.7483,97.6718546 103.5273,96.6228305 C103.305748,95.6393021 102.575344,94.8953792 101.757092,94.3708671 C101.64604,94.3053713 101.557087,94.2617075 101.446588,94.1962117 Z M111.759542,90.8297284 C111.139638,90.938888 110.520286,91.0704254 109.900382,91.201417 C107.377669,91.7695929 104.899157,92.6002978 102.531144,93.6935316 C102.398544,93.7371954 102.265944,93.8026912 102.132792,93.8687328 C103.261548,94.5679003 104.146652,95.5738064 104.212952,96.9508552 C104.257152,98.0877529 103.682,99.2028186 102.796896,99.9019861 C101.867592,100.645909 100.694636,100.973388 99.4995795,100.99522 C98.9244276,101.017052 98.2824232,100.973388 97.7735712,100.667741 C97.2862667,100.382834 96.9984145,99.8801541 96.8437146,99.3556421 C96.5785149,98.2187444 96.9763145,97.0381829 97.6630713,96.1201504 C98.3929231,95.1584539 99.4553795,94.5024045 100.517836,93.9560605 C100.584136,93.9123966 100.650436,93.8905647 100.716736,93.8463551 C98.9023276,93.1248098 96.8437146,93.0374821 95.1840063,91.9660803 C94.6751543,91.6604333 94.2768022,91.2450808 94.1215499,90.6763591 C93.9447501,90.0645193 93.98895,89.4308476 94.0773499,88.818462 C94.2547022,87.6155228 94.7193543,86.4786252 95.3387062,85.4301468 C96.4453625,83.5056624 97.950371,81.7132611 99.6542793,80.2701706 C101.313988,78.8712899 103.261548,77.7562241 105.408009,77.253544 C106.492565,76.9915609 107.709721,76.8381916 108.771625,77.2753759 C109.723582,77.6688964 110.299286,78.5650971 110.453986,79.5486254 C110.830238,81.9097484 109.10423,83.6803178 107.975473,85.5611384 C107.753921,85.9104492 107.200317,85.6048022 107.400322,85.2549456 C107.709721,84.7517197 108.041773,84.2714172 108.373273,83.790569 C108.993177,82.8719907 109.634629,81.9097484 109.811982,80.7946827 C109.944582,79.8990279 109.789882,78.8712899 109.081577,78.2376181 C108.262773,77.4718633 107.001417,77.5815687 105.98316,77.7780561 C104.921257,77.9963753 103.903,78.3686097 102.929496,78.8494579 C100.959836,79.855364 99.2559272,81.3415725 97.8398711,83.0029822 C97.1094669,83.8778967 96.4232626,84.8177612 95.8696581,85.8231215 C95.2724062,86.8508595 94.8083067,87.9877572 94.6751543,89.1896048 C94.6304019,89.7583265 94.5862019,90.4356621 94.9409066,90.938888 C95.2945062,91.3979043 95.8917581,91.6604333 96.4011626,91.8787525 C97.529919,92.3601466 98.7465227,92.5784658 99.9194791,92.9064906 C100.428884,93.0593141 100.937736,93.2558014 101.446588,93.4964984 C102.288044,93.081146 103.150496,92.7094574 104.036152,92.3601466 C106.470465,91.3760724 108.993177,90.6763591 111.58219,90.2173428 C112.003194,90.1300151 112.179994,90.7418549 111.759542,90.8297284 L111.759542,90.8297284 Z" id="Fill-11" fill="#FFFFFE"></path>
                <path d="M101.446588,94.1962117 C100.694636,94.5679003 99.9642315,94.9614208 99.3001272,95.442269 C98.3708231,96.1201504 97.6183189,97.0381829 97.4409665,98.1969125 C97.3525666,98.6995926 97.4188666,99.2683144 97.7072713,99.7054987 C98.016671,100.208179 98.5918229,100.33917 99.1454273,100.361002 C100.273631,100.404666 101.490787,100.142683 102.376444,99.4211379 C103.195248,98.7432565 103.7483,97.6718546 103.5273,96.6228305 C103.305748,95.6393021 102.575344,94.8953792 101.757092,94.3708671 C101.64604,94.3053713 101.557087,94.2617075 101.446588,94.1962117 Z M111.759542,90.8297284 C111.139638,90.938888 110.520286,91.0704254 109.900382,91.201417 C107.377669,91.7695929 104.899157,92.6002978 102.531144,93.6935316 C102.398544,93.7371954 102.265944,93.8026912 102.132792,93.8687328 C103.261548,94.5679003 104.146652,95.5738064 104.212952,96.9508552 C104.257152,98.0877529 103.682,99.2028186 102.796896,99.9019861 C101.867592,100.645909 100.694636,100.973388 99.4995795,100.99522 C98.9244276,101.017052 98.2824232,100.973388 97.7735712,100.667741 C97.2862667,100.382834 96.9984145,99.8801541 96.8437146,99.3556421 C96.5785149,98.2187444 96.9763145,97.0381829 97.6630713,96.1201504 C98.3929231,95.1584539 99.4553795,94.5024045 100.517836,93.9560605 C100.584136,93.9123966 100.650436,93.8905647 100.716736,93.8463551 C98.9023276,93.1248098 96.8437146,93.0374821 95.1840063,91.9660803 C94.6751543,91.6604333 94.2768022,91.2450808 94.1215499,90.6763591 C93.9447501,90.0645193 93.98895,89.4308476 94.0773499,88.818462 C94.2547022,87.6155228 94.7193543,86.4786252 95.3387062,85.4301468 C96.4453625,83.5056624 97.950371,81.7132611 99.6542793,80.2701706 C101.313988,78.8712899 103.261548,77.7562241 105.408009,77.253544 C106.492565,76.9915609 107.709721,76.8381916 108.771625,77.2753759 C109.723582,77.6688964 110.299286,78.5650971 110.453986,79.5486254 C110.830238,81.9097484 109.10423,83.6803178 107.975473,85.5611384 C107.753921,85.9104492 107.200317,85.6048022 107.400322,85.2549456 C107.709721,84.7517197 108.041773,84.2714172 108.373273,83.790569 C108.993177,82.8719907 109.634629,81.9097484 109.811982,80.7946827 C109.944582,79.8990279 109.789882,78.8712899 109.081577,78.2376181 C108.262773,77.4718633 107.001417,77.5815687 105.98316,77.7780561 C104.921257,77.9963753 103.903,78.3686097 102.929496,78.8494579 C100.959836,79.855364 99.2559272,81.3415725 97.8398711,83.0029822 C97.1094669,83.8778967 96.4232626,84.8177612 95.8696581,85.8231215 C95.2724062,86.8508595 94.8083067,87.9877572 94.6751543,89.1896048 C94.6304019,89.7583265 94.5862019,90.4356621 94.9409066,90.938888 C95.2945062,91.3979043 95.8917581,91.6604333 96.4011626,91.8787525 C97.529919,92.3601466 98.7465227,92.5784658 99.9194791,92.9064906 C100.428884,93.0593141 100.937736,93.2558014 101.446588,93.4964984 C102.288044,93.081146 103.150496,92.7094574 104.036152,92.3601466 C106.470465,91.3760724 108.993177,90.6763591 111.58219,90.2173428 C112.003194,90.1300151 112.179994,90.7418549 111.759542,90.8297284 Z" id="Stroke-12" stroke="#FFFEFE"></path>
                <path d="M112.159385,86.231543 C112.115102,85.8578836 112.181527,85.5067207 112.337072,85.1550091 C112.403496,85.0008266 112.625466,84.9569312 112.780457,85.044722 C112.935448,85.1325127 112.979731,85.3086429 112.913306,85.484773 C112.802598,85.7042499 112.780457,85.9681708 112.82474,86.2095953 C112.846881,86.3851767 112.669749,86.5399079 112.492616,86.5399079 C112.31493,86.5399079 112.181527,86.4071244 112.159385,86.231543 Z M116.948608,90.5393245 C116.393961,91.3524862 115.795585,92.1431515 115.175068,92.8910188 C114.642563,93.5280503 114.110612,94.2534212 113.378833,94.6709759 C112.714032,95.0890793 111.627434,95.2207654 111.206191,94.3851073 C111.006917,94.0119967 110.984775,93.594442 111.006917,93.1763387 C111.0512,92.7148886 111.117624,92.2539873 111.184049,91.7919885 C111.317452,90.8690884 111.494585,89.9461884 111.738142,89.0227396 C111.849403,88.6271326 112.492616,88.7813151 112.381355,89.1763734 C112.137244,90.0778745 111.93797,91.0007745 111.804567,91.9017269 C111.760284,92.3198303 111.693859,92.7148886 111.671717,93.1324433 C111.649576,93.4622072 111.627434,93.8139189 111.782425,94.1217351 C111.960111,94.4290027 112.359213,94.3851073 112.647607,94.2973166 C113.002426,94.2095258 113.312408,93.9681013 113.555965,93.7261281 C114.08847,93.1982863 114.576138,92.6051502 115.042218,92.033413 C115.507745,91.4622246 115.95113,90.8471408 116.37182,90.2315082 C116.616484,89.902293 117.170577,90.2095606 116.948608,90.5393245 L116.948608,90.5393245 Z" id="Fill-13" fill="#FFFFFE"></path>
                <path d="M112.159385,86.231543 C112.115102,85.8578836 112.181527,85.5067207 112.337072,85.1550091 C112.403496,85.0008266 112.625466,84.9569312 112.780457,85.044722 C112.935448,85.1325127 112.979731,85.3086429 112.913306,85.484773 C112.802598,85.7042499 112.780457,85.9681708 112.82474,86.2095953 C112.846881,86.3851767 112.669749,86.5399079 112.492616,86.5399079 C112.31493,86.5399079 112.181527,86.4071244 112.159385,86.231543 Z M116.948608,90.5393245 C116.393961,91.3524862 115.795585,92.1431515 115.175068,92.8910188 C114.642563,93.5280503 114.110612,94.2534212 113.378833,94.6709759 C112.714032,95.0890793 111.627434,95.2207654 111.206191,94.3851073 C111.006917,94.0119967 110.984775,93.594442 111.006917,93.1763387 C111.0512,92.7148886 111.117624,92.2539873 111.184049,91.7919885 C111.317452,90.8690884 111.494585,89.9461884 111.738142,89.0227396 C111.849403,88.6271326 112.492616,88.7813151 112.381355,89.1763734 C112.137244,90.0778745 111.93797,91.0007745 111.804567,91.9017269 C111.760284,92.3198303 111.693859,92.7148886 111.671717,93.1324433 C111.649576,93.4622072 111.627434,93.8139189 111.782425,94.1217351 C111.960111,94.4290027 112.359213,94.3851073 112.647607,94.2973166 C113.002426,94.2095258 113.312408,93.9681013 113.555965,93.7261281 C114.08847,93.1982863 114.576138,92.6051502 115.042218,92.033413 C115.507745,91.4622246 115.95113,90.8471408 116.37182,90.2315082 C116.616484,89.902293 117.170577,90.2095606 116.948608,90.5393245 Z" id="Stroke-14" stroke="#FFFEFE"></path>
                <path d="M128.949362,90.0098611 C128.455296,90.7572631 127.893373,91.4807622 127.264716,92.1115649 C126.748218,92.648505 126.163863,93.209348 125.445478,93.4192268 C124.726531,93.6296887 124.008145,93.3026275 123.85056,92.5085857 C123.693536,91.7617667 123.963281,90.9904619 124.142737,90.2669627 C124.299761,89.7294396 124.456786,89.1458597 124.299761,88.5850168 C123.334062,89.4262812 122.750268,90.6639836 122.075625,91.7384469 C121.896169,92.0182854 121.716712,92.2987068 121.536695,92.5552255 C121.334807,92.8117441 121.132919,93.0921656 120.840741,93.209348 C120.166659,93.4658666 119.807185,92.7651043 119.807185,92.1815245 C119.807185,91.8084065 119.897474,91.4341225 119.942338,91.0843244 C119.987202,90.6639836 120.032066,90.2436429 120.099363,89.8227191 C120.144227,89.4029614 120.211523,88.9593007 120.256387,88.538377 C120.278819,88.3051783 120.323683,88.0014369 120.211523,87.791558 C119.897474,87.2779378 119.088239,88.538377 118.953646,88.7494219 C118.504445,89.3796415 118.077675,90.033181 117.673338,90.6873035 C116.887095,92.0182854 116.213012,93.395907 115.629219,94.8207513 C115.494626,95.1472296 115,94.9839905 115,94.6802491 C115.045425,92.5552255 115.382466,90.4774246 116.055988,88.4684174 C116.19058,88.0719795 116.819799,88.2118988 116.685207,88.6316565 C116.235444,90.0098611 115.943828,91.4108026 115.786804,92.835064 C116.280308,91.8084065 116.842231,90.780583 117.448457,89.7993992 C117.875226,89.1458597 118.302556,88.4917373 118.77419,87.8615176 C119.155535,87.3478974 119.807185,86.7170948 120.458836,87.1374355 C121.020758,87.4883996 120.952902,88.2585385 120.885605,88.8193815 C120.773445,89.6827999 120.660724,90.5473842 120.548564,91.4108026 C120.5037,91.7384469 120.436404,92.0649251 120.481268,92.3686665 C120.5037,92.4386261 120.526132,92.5552255 120.570996,92.5785453 C120.660724,92.6018652 120.773445,92.4386261 120.818309,92.3919863 C121.222647,91.901686 121.536695,91.340843 121.873737,90.8039029 C122.547819,89.65948 123.198909,88.5150571 124.277329,87.7682381 C124.411921,87.6516388 124.636803,87.7215984 124.726531,87.8848375 C125.108997,88.5616969 125.063572,89.3096819 124.883555,90.033181 C124.748963,90.6873035 124.479218,91.3641629 124.456786,92.0182854 C124.456786,92.2987068 124.50221,92.648505 124.771395,92.7651043 C125.018147,92.8822867 125.310885,92.7651043 125.535206,92.6718248 C126.118999,92.3686665 126.613626,91.8317264 127.062827,91.3641629 C127.534461,90.8505426 127.984223,90.2669627 128.365568,89.65948 C128.590449,89.3096819 129.174243,89.6361601 128.949362,90.0098611" id="Fill-15" fill="#FFFFFE"></path>
                <path d="M128.949362,90.0098611 C128.455296,90.7572631 127.893373,91.4807622 127.264716,92.1115649 C126.748218,92.648505 126.163863,93.209348 125.445478,93.4192268 C124.726531,93.6296887 124.008145,93.3026275 123.85056,92.5085857 C123.693536,91.7617667 123.963281,90.9904619 124.142737,90.2669627 C124.299761,89.7294396 124.456786,89.1458597 124.299761,88.5850168 C123.334062,89.4262812 122.750268,90.6639836 122.075625,91.7384469 C121.896169,92.0182854 121.716712,92.2987068 121.536695,92.5552255 C121.334807,92.8117441 121.132919,93.0921656 120.840741,93.209348 C120.166659,93.4658666 119.807185,92.7651043 119.807185,92.1815245 C119.807185,91.8084065 119.897474,91.4341225 119.942338,91.0843244 C119.987202,90.6639836 120.032066,90.2436429 120.099363,89.8227191 C120.144227,89.4029614 120.211523,88.9593007 120.256387,88.538377 C120.278819,88.3051783 120.323683,88.0014369 120.211523,87.791558 C119.897474,87.2779378 119.088239,88.538377 118.953646,88.7494219 C118.504445,89.3796415 118.077675,90.033181 117.673338,90.6873035 C116.887095,92.0182854 116.213012,93.395907 115.629219,94.8207513 C115.494626,95.1472296 115,94.9839905 115,94.6802491 C115.045425,92.5552255 115.382466,90.4774246 116.055988,88.4684174 C116.19058,88.0719795 116.819799,88.2118988 116.685207,88.6316565 C116.235444,90.0098611 115.943828,91.4108026 115.786804,92.835064 C116.280308,91.8084065 116.842231,90.780583 117.448457,89.7993992 C117.875226,89.1458597 118.302556,88.4917373 118.77419,87.8615176 C119.155535,87.3478974 119.807185,86.7170948 120.458836,87.1374355 C121.020758,87.4883996 120.952902,88.2585385 120.885605,88.8193815 C120.773445,89.6827999 120.660724,90.5473842 120.548564,91.4108026 C120.5037,91.7384469 120.436404,92.0649251 120.481268,92.3686665 C120.5037,92.4386261 120.526132,92.5552255 120.570996,92.5785453 C120.660724,92.6018652 120.773445,92.4386261 120.818309,92.3919863 C121.222647,91.901686 121.536695,91.340843 121.873737,90.8039029 C122.547819,89.65948 123.198909,88.5150571 124.277329,87.7682381 C124.411921,87.6516388 124.636803,87.7215984 124.726531,87.8848375 C125.108997,88.5616969 125.063572,89.3096819 124.883555,90.033181 C124.748963,90.6873035 124.479218,91.3641629 124.456786,92.0182854 C124.456786,92.2987068 124.50221,92.648505 124.771395,92.7651043 C125.018147,92.8822867 125.310885,92.7651043 125.535206,92.6718248 C126.118999,92.3686665 126.613626,91.8317264 127.062827,91.3641629 C127.534461,90.8505426 127.984223,90.2669627 128.365568,89.65948 C128.590449,89.3096819 129.174243,89.6361601 128.949362,90.0098611 Z" id="Stroke-16" stroke="#FFFEFE"></path>
                <path d="M133.355356,91.360452 C133.035885,91.5301989 132.73718,91.719978 132.439008,91.9097572 C131.734576,92.3952754 130.860824,93.2192332 130.90342,94.1480966 C132.011983,93.5355317 132.886799,92.5217949 133.355356,91.360452 Z M130.135626,88.6787675 C128.876913,90.0304166 128.34393,91.9519303 128.194843,93.7469246 C128.087821,94.8871808 128.109651,96.0274371 128.130949,97.1887799 C128.152247,97.6532116 128.152247,98.1176433 128.152247,98.5826022 C128.685231,95.2672662 129.346002,91.9519303 130.135626,88.6787675 Z M137.706543,90.0725898 C137.023941,90.1152901 136.36317,90.2207229 135.701866,90.4110292 C135.168883,90.5586352 134.635367,90.7484143 134.123682,90.9598072 C133.675891,92.669928 132.439008,94.1480966 130.839526,94.8660943 C130.646779,94.9504405 130.433799,94.8871808 130.369905,94.6968745 C130.156924,94.02105 130.327309,93.324666 130.711205,92.7542743 C131.393807,91.7410646 132.502902,91.0441535 133.590699,90.5375486 C133.633295,90.2839826 133.675891,90.0515032 133.675891,89.7979372 C133.718487,89.0382935 133.54757,88.0667298 132.758478,87.7082581 C132.161069,87.4546921 131.500297,87.666085 130.946016,88.0034701 C130.625481,89.3551192 130.306011,90.6851546 130.007306,92.0368037 C129.090426,96.3015625 128.407824,100.630108 127.917437,104.959181 C127.831712,105.909131 127.74652,106.838521 127.618732,107.767385 C127.576136,108.126384 126.979258,108.042037 127.000556,107.704125 C127.085749,106.754175 127.192239,105.824785 127.298729,104.874307 C127.448348,102.974408 127.53354,101.052894 127.53354,99.1524667 C127.53354,96.7449076 127.298729,94.2962297 127.85301,91.9308437 C128.087821,90.9387206 128.47225,89.9460703 129.047829,89.0804667 C129.409896,88.5311615 129.858219,88.0245567 130.391203,87.6449984 C130.391203,87.6233847 130.391203,87.6022981 130.412501,87.5812115 C130.455097,87.3909052 130.646779,87.3276455 130.796398,87.3698187 C130.967314,87.2854724 131.137699,87.2222127 131.308615,87.158953 C132.225495,86.8210407 133.248866,87.0108198 133.824977,87.8347775 C134.315364,88.5100749 134.35796,89.4183789 134.272768,90.2418095 C135.360565,89.7979372 136.512256,89.5448984 137.685245,89.4605521 C138.09044,89.4183789 138.111738,90.0515032 137.706543,90.0725898 L137.706543,90.0725898 Z" id="Fill-17" fill="#FFFFFE"></path>
                <path d="M133.355356,91.360452 C133.035885,91.5301989 132.73718,91.719978 132.439008,91.9097572 C131.734576,92.3952754 130.860824,93.2192332 130.90342,94.1480966 C132.011983,93.5355317 132.886799,92.5217949 133.355356,91.360452 Z M130.135626,88.6787675 C128.876913,90.0304166 128.34393,91.9519303 128.194843,93.7469246 C128.087821,94.8871808 128.109651,96.0274371 128.130949,97.1887799 C128.152247,97.6532116 128.152247,98.1176433 128.152247,98.5826022 C128.685231,95.2672662 129.346002,91.9519303 130.135626,88.6787675 Z M137.706543,90.0725898 C137.023941,90.1152901 136.36317,90.2207229 135.701866,90.4110292 C135.168883,90.5586352 134.635367,90.7484143 134.123682,90.9598072 C133.675891,92.669928 132.439008,94.1480966 130.839526,94.8660943 C130.646779,94.9504405 130.433799,94.8871808 130.369905,94.6968745 C130.156924,94.02105 130.327309,93.324666 130.711205,92.7542743 C131.393807,91.7410646 132.502902,91.0441535 133.590699,90.5375486 C133.633295,90.2839826 133.675891,90.0515032 133.675891,89.7979372 C133.718487,89.0382935 133.54757,88.0667298 132.758478,87.7082581 C132.161069,87.4546921 131.500297,87.666085 130.946016,88.0034701 C130.625481,89.3551192 130.306011,90.6851546 130.007306,92.0368037 C129.090426,96.3015625 128.407824,100.630108 127.917437,104.959181 C127.831712,105.909131 127.74652,106.838521 127.618732,107.767385 C127.576136,108.126384 126.979258,108.042037 127.000556,107.704125 C127.085749,106.754175 127.192239,105.824785 127.298729,104.874307 C127.448348,102.974408 127.53354,101.052894 127.53354,99.1524667 C127.53354,96.7449076 127.298729,94.2962297 127.85301,91.9308437 C128.087821,90.9387206 128.47225,89.9460703 129.047829,89.0804667 C129.409896,88.5311615 129.858219,88.0245567 130.391203,87.6449984 C130.391203,87.6233847 130.391203,87.6022981 130.412501,87.5812115 C130.455097,87.3909052 130.646779,87.3276455 130.796398,87.3698187 C130.967314,87.2854724 131.137699,87.2222127 131.308615,87.158953 C132.225495,86.8210407 133.248866,87.0108198 133.824977,87.8347775 C134.315364,88.5100749 134.35796,89.4183789 134.272768,90.2418095 C135.360565,89.7979372 136.512256,89.5448984 137.685245,89.4605521 C138.09044,89.4183789 138.111738,90.0515032 137.706543,90.0725898 Z" id="Stroke-18" stroke="#FFFEFE"></path>
                <path d="M144.338682,73.4522039 C144.338682,73.3612415 144.338682,73.2702792 144.31561,73.1793168 C144.31561,73.1338356 144.31561,73.0883544 144.31561,73.0428732 C144.31561,73.0428732 144.292539,73.0201327 144.292539,72.9968236 C144.269467,72.9286018 144.269467,72.8370709 144.223324,72.7688491 C144.269467,72.9058612 144.107965,72.6324056 144.200252,72.7461085 C144.200252,72.7233679 144.17718,72.7006274 144.154109,72.6778868 C144.131037,72.6778868 144.131037,72.6778868 144.131037,72.6778868 C144.107965,72.6778868 144.084894,72.6778868 144.061245,72.6551462 C144.17718,72.7006274 144.084894,72.6778868 144.038173,72.6778868 L144.015102,72.6778868 C143.968382,72.6778868 143.94531,72.6778868 143.899167,72.7006274 C143.876095,72.7006274 143.80688,72.7233679 143.80688,72.7233679 C143.344869,72.9286018 142.975723,73.3612415 142.698286,73.7711407 C141.681402,75.1827628 141.034818,76.8905812 140.479944,78.5074372 C139.50978,81.2857689 138.817053,84.1544944 138.355042,87.046529 C139.255415,85.9765842 139.995439,84.7696274 140.688166,83.5399299 C141.473756,82.0828266 142.189555,80.5569329 142.813644,79.0088672 C143.344869,77.6876389 143.829951,76.3214979 144.131037,74.9098757 C144.246395,74.3862736 144.31561,73.9530654 144.338682,73.4522039 Z M144.962194,73.975806 C144.916051,74.5681984 144.777621,75.1827628 144.615542,75.7518461 C144.223324,77.3010489 143.645378,78.8036334 143.021866,80.2613053 C142.351634,81.8326801 141.589115,83.3807458 140.688166,84.8611582 C139.995439,86.0453745 139.1862,87.2517628 138.193541,88.2080047 C138.124326,88.7316068 138.053957,89.2557774 138.007814,89.7793795 C137.777097,92.0113685 137.661738,94.2655295 137.68481,96.5196906 C137.707882,98.5464457 137.800169,100.595941 138.239684,102.577215 C138.331971,102.986546 137.68481,103.19178 137.592523,102.75914 C137.49966,102.30376 137.407373,101.84838 137.338158,101.392999 C137.015155,99.2070599 136.969011,96.9750709 137.015155,94.766391 C137.061298,92.5349706 137.245872,90.3029816 137.523308,88.0715611 C137.523308,88.02608 137.523308,87.9805988 137.54638,87.9351176 C137.777097,86.0681151 138.147397,84.2232847 138.608831,82.4011948 C139.140056,80.3750082 139.741073,78.3937342 140.526664,76.480682 C140.872739,75.6381432 141.24304,74.841654 141.70505,74.0667683 C142.028053,73.4976851 142.44392,72.9058612 142.975723,72.4732214 C143.298726,72.1997658 143.783808,71.9268788 144.246395,72.0178411 C144.615542,72.0860629 144.823764,72.3816906 144.916051,72.7233679 C145.031409,73.111095 145.008337,73.5659068 144.962194,73.975806 L144.962194,73.975806 Z" id="Fill-19" fill="#FFFFFE"></path>
                <path d="M144.338682,73.4522039 C144.338682,73.3612415 144.338682,73.2702792 144.31561,73.1793168 C144.31561,73.1338356 144.31561,73.0883544 144.31561,73.0428732 C144.31561,73.0428732 144.292539,73.0201327 144.292539,72.9968236 C144.269467,72.9286018 144.269467,72.8370709 144.223324,72.7688491 C144.269467,72.9058612 144.107965,72.6324056 144.200252,72.7461085 C144.200252,72.7233679 144.17718,72.7006274 144.154109,72.6778868 C144.131037,72.6778868 144.131037,72.6778868 144.131037,72.6778868 C144.107965,72.6778868 144.084894,72.6778868 144.061245,72.6551462 C144.17718,72.7006274 144.084894,72.6778868 144.038173,72.6778868 L144.015102,72.6778868 C143.968382,72.6778868 143.94531,72.6778868 143.899167,72.7006274 C143.876095,72.7006274 143.80688,72.7233679 143.80688,72.7233679 C143.344869,72.9286018 142.975723,73.3612415 142.698286,73.7711407 C141.681402,75.1827628 141.034818,76.8905812 140.479944,78.5074372 C139.50978,81.2857689 138.817053,84.1544944 138.355042,87.046529 C139.255415,85.9765842 139.995439,84.7696274 140.688166,83.5399299 C141.473756,82.0828266 142.189555,80.5569329 142.813644,79.0088672 C143.344869,77.6876389 143.829951,76.3214979 144.131037,74.9098757 C144.246395,74.3862736 144.31561,73.9530654 144.338682,73.4522039 Z M144.962194,73.975806 C144.916051,74.5681984 144.777621,75.1827628 144.615542,75.7518461 C144.223324,77.3010489 143.645378,78.8036334 143.021866,80.2613053 C142.351634,81.8326801 141.589115,83.3807458 140.688166,84.8611582 C139.995439,86.0453745 139.1862,87.2517628 138.193541,88.2080047 C138.124326,88.7316068 138.053957,89.2557774 138.007814,89.7793795 C137.777097,92.0113685 137.661738,94.2655295 137.68481,96.5196906 C137.707882,98.5464457 137.800169,100.595941 138.239684,102.577215 C138.331971,102.986546 137.68481,103.19178 137.592523,102.75914 C137.49966,102.30376 137.407373,101.84838 137.338158,101.392999 C137.015155,99.2070599 136.969011,96.9750709 137.015155,94.766391 C137.061298,92.5349706 137.245872,90.3029816 137.523308,88.0715611 C137.523308,88.02608 137.523308,87.9805988 137.54638,87.9351176 C137.777097,86.0681151 138.147397,84.2232847 138.608831,82.4011948 C139.140056,80.3750082 139.741073,78.3937342 140.526664,76.480682 C140.872739,75.6381432 141.24304,74.841654 141.70505,74.0667683 C142.028053,73.4976851 142.44392,72.9058612 142.975723,72.4732214 C143.298726,72.1997658 143.783808,71.9268788 144.246395,72.0178411 C144.615542,72.0860629 144.823764,72.3816906 144.916051,72.7233679 C145.031409,73.111095 145.008337,73.5659068 144.962194,73.975806 Z" id="Stroke-20" stroke="#FFFEFE"></path>
                <path d="M149.441555,94.7394637 C148.517227,95.9053439 147.636313,97.1389491 146.822442,98.3938234 C145.105127,101.150965 143.718085,104.155499 143.014123,107.339141 C142.83827,108.100909 142.661867,108.908573 142.639886,109.69273 C142.639886,110.343115 142.794307,111.105443 143.498269,111.306939 C144.20278,111.508995 144.906742,111.083054 145.347474,110.545171 C145.875583,109.894786 146.183876,109.065292 146.5136,108.325353 C147.944605,105.096934 148.912896,101.644631 149.287134,98.1246019 C149.397592,97.0034988 149.463537,95.8605669 149.441555,94.7394637 Z M150.05759,93.9547475 C150.146067,95.9053439 150.013627,97.8783287 149.705884,99.8059768 C149.419573,101.622242 148.979391,103.437948 148.406769,105.186488 C148.121008,106.061318 147.790184,106.935029 147.438478,107.78747 C147.108204,108.616963 146.756497,109.468845 146.315766,110.253561 C145.897565,110.970552 145.347474,111.643886 144.533054,111.890159 C143.78458,112.136432 142.926196,111.979713 142.420069,111.306939 C141.957356,110.70189 141.957356,109.849449 142.045282,109.110069 C142.133209,108.280576 142.309611,107.451083 142.507996,106.643978 C143.344397,103.281229 144.884761,100.165312 146.778479,97.2956685 C147.592349,96.0626229 148.473264,94.8967428 149.419573,93.7532512 C149.309116,91.7802664 148.979391,89.8296701 148.4293,87.9244104 C147.636313,88.0363528 147.086222,88.7315151 146.734516,89.4037292 C146.359729,90.166057 146.161894,91.0403271 145.765675,91.8026549 C145.413419,92.430092 144.642963,93.5064182 143.873056,92.8565926 C143.542232,92.5649826 143.432324,92.1166533 143.322416,91.7131009 C143.211958,91.219435 143.124031,90.7263287 143.080068,90.2337821 C142.992141,89.2470099 143.080068,88.2154606 143.344397,87.2516366 C143.432324,86.8256957 144.07089,86.9824151 143.960982,87.4089156 C143.696103,88.416957 143.630159,89.4708947 143.762598,90.5024439 C143.806561,90.9731617 143.917019,91.4220507 144.048909,91.8698203 C144.114854,92.1166533 144.268725,92.5425941 144.577018,92.3181496 C145.149639,91.8698203 145.435401,90.9955502 145.677748,90.323336 C145.941528,89.5828371 146.227839,88.865846 146.734516,88.2378491 C147.218112,87.6551889 147.87866,87.2292481 148.649117,87.274025 C148.802988,87.274025 148.912896,87.3641387 148.95686,87.4984696 C149.111281,87.9467989 149.221189,88.37218 149.331097,88.821069 C149.683903,90.2113936 149.903719,91.6011585 150.013627,93.0133119 C151.092376,91.7354894 152.259052,90.5024439 153.447159,89.3141753 C153.73402,89.0231251 154.196184,89.4932831 153.909873,89.7848931 C153.624112,90.076503 153.337251,90.3457245 153.05149,90.6367748 C152.016704,91.7131009 151.00445,92.8118156 150.05759,93.9547475 L150.05759,93.9547475 Z" id="Fill-21" fill="#FFFFFE"></path>
                <path d="M149.441555,94.7394637 C148.517227,95.9053439 147.636313,97.1389491 146.822442,98.3938234 C145.105127,101.150965 143.718085,104.155499 143.014123,107.339141 C142.83827,108.100909 142.661867,108.908573 142.639886,109.69273 C142.639886,110.343115 142.794307,111.105443 143.498269,111.306939 C144.20278,111.508995 144.906742,111.083054 145.347474,110.545171 C145.875583,109.894786 146.183876,109.065292 146.5136,108.325353 C147.944605,105.096934 148.912896,101.644631 149.287134,98.1246019 C149.397592,97.0034988 149.463537,95.8605669 149.441555,94.7394637 Z M150.05759,93.9547475 C150.146067,95.9053439 150.013627,97.8783287 149.705884,99.8059768 C149.419573,101.622242 148.979391,103.437948 148.406769,105.186488 C148.121008,106.061318 147.790184,106.935029 147.438478,107.78747 C147.108204,108.616963 146.756497,109.468845 146.315766,110.253561 C145.897565,110.970552 145.347474,111.643886 144.533054,111.890159 C143.78458,112.136432 142.926196,111.979713 142.420069,111.306939 C141.957356,110.70189 141.957356,109.849449 142.045282,109.110069 C142.133209,108.280576 142.309611,107.451083 142.507996,106.643978 C143.344397,103.281229 144.884761,100.165312 146.778479,97.2956685 C147.592349,96.0626229 148.473264,94.8967428 149.419573,93.7532512 C149.309116,91.7802664 148.979391,89.8296701 148.4293,87.9244104 C147.636313,88.0363528 147.086222,88.7315151 146.734516,89.4037292 C146.359729,90.166057 146.161894,91.0403271 145.765675,91.8026549 C145.413419,92.430092 144.642963,93.5064182 143.873056,92.8565926 C143.542232,92.5649826 143.432324,92.1166533 143.322416,91.7131009 C143.211958,91.219435 143.124031,90.7263287 143.080068,90.2337821 C142.992141,89.2470099 143.080068,88.2154606 143.344397,87.2516366 C143.432324,86.8256957 144.07089,86.9824151 143.960982,87.4089156 C143.696103,88.416957 143.630159,89.4708947 143.762598,90.5024439 C143.806561,90.9731617 143.917019,91.4220507 144.048909,91.8698203 C144.114854,92.1166533 144.268725,92.5425941 144.577018,92.3181496 C145.149639,91.8698203 145.435401,90.9955502 145.677748,90.323336 C145.941528,89.5828371 146.227839,88.865846 146.734516,88.2378491 C147.218112,87.6551889 147.87866,87.2292481 148.649117,87.274025 C148.802988,87.274025 148.912896,87.3641387 148.95686,87.4984696 C149.111281,87.9467989 149.221189,88.37218 149.331097,88.821069 C149.683903,90.2113936 149.903719,91.6011585 150.013627,93.0133119 C151.092376,91.7354894 152.259052,90.5024439 153.447159,89.3141753 C153.73402,89.0231251 154.196184,89.4932831 153.909873,89.7848931 C153.624112,90.076503 153.337251,90.3457245 153.05149,90.6367748 C152.016704,91.7131009 151.00445,92.8118156 150.05759,93.9547475 Z" id="Stroke-22" stroke="#FFFEFE"></path>
                <path d="M187.949554,90.3440204 C187.612875,90.9593699 187.208412,91.5302956 186.782661,92.0573463 C185.862255,93.2216839 184.807962,94.2543959 183.618661,95.1554825 C182.743631,95.792221 181.711185,96.4953208 180.589668,96.6269463 C180.117981,96.6933075 179.669262,96.539196 179.377959,96.1437709 C179.108504,95.792221 179.04128,95.3309832 178.996464,94.8911345 C178.906272,93.5293586 179.243512,92.1456451 179.534815,90.8277443 C179.91631,89.1138701 180.387437,87.4005442 180.836156,85.6872184 C181.240059,84.1055182 181.666369,82.5243663 181.935825,80.8987909 C181.980641,80.7221933 182.003049,80.5466926 182.025457,80.3931294 C182.025457,80.3053791 182.047865,80.2170803 182.047865,80.1512675 C182.047865,80.1293299 182.070272,80.0635171 182.070272,80.0635171 C182.070272,80.019642 182.070272,79.9977044 182.070272,79.9757668 C182.09268,79.6905781 182.115088,79.4262301 182.115088,79.1410415 C182.115088,79.0308051 182.115088,78.8991795 182.09268,78.7894916 C182.09268,78.7456164 182.09268,78.6798036 182.070272,78.6139908 C182.070272,78.5920533 182.070272,78.5701157 182.070272,78.5262405 C182.047865,78.4379417 182.025457,78.3501913 181.980641,78.262441 C181.980641,78.2405034 181.958233,78.2185658 181.980641,78.2405034 L181.958233,78.2185658 C181.935825,78.1746906 181.913417,78.152753 181.913417,78.1088778 C181.891009,78.1088778 181.891009,78.1088778 181.891009,78.0869402 C181.891009,78.0869402 181.891009,78.0869402 181.868601,78.0869402 C181.846193,78.0644542 181.823785,78.0425166 181.801377,78.020579 C181.801377,78.020579 181.778409,77.9986414 181.756001,77.9986414 L181.733593,77.9767038 C181.688777,77.9767038 181.666369,77.9547663 181.621554,77.9547663 C181.599146,77.9547663 181.599146,77.9547663 181.599146,77.9547663 C181.55433,77.9547663 181.508954,77.9547663 181.464138,77.9547663 C181.44173,77.9547663 181.44173,77.9547663 181.44173,77.9547663 C181.44173,77.9547663 181.44173,77.9547663 181.464138,77.9547663 C181.44173,77.9547663 181.44173,77.9547663 181.44173,77.9547663 C181.419322,77.9547663 181.396914,77.9547663 181.44173,77.9547663 C181.419322,77.9547663 181.396914,77.9547663 181.396914,77.9767038 C181.32969,77.9767038 181.284874,77.9986414 181.240059,78.020579 C181.217651,78.020579 181.217651,78.020579 181.195243,78.020579 C181.172835,78.0425166 181.150427,78.0425166 181.150427,78.0425166 C181.015979,78.1088778 180.903379,78.1746906 180.79134,78.262441 C180.768932,78.2843786 180.746524,78.3063161 180.701708,78.3282537 C180.701708,78.3282537 180.6793,78.3501913 180.656892,78.3501913 C180.612076,78.3940665 180.544852,78.4379417 180.500037,78.5037545 C180.364469,78.6139908 180.230021,78.7236788 180.095573,78.8553043 C179.489999,79.4701053 178.951648,80.1512675 178.457553,80.8543673 C177.784755,81.7768429 177.178621,82.7437422 176.595454,83.7106415 C175.249298,85.9290804 174.037589,88.2138804 172.893104,90.5200696 C171.883626,92.5849453 170.895996,94.649821 170.043375,96.7810579 C169.998559,96.934621 169.773919,96.9784962 169.639472,96.9126834 C169.482616,96.8688083 169.415392,96.7152451 169.4378,96.539196 C169.482616,96.297334 169.54984,96.0335345 169.594656,95.792221 C170.133006,93.0461831 170.739141,90.3440204 171.18786,87.576045 C171.411939,86.3020194 171.591203,84.9841187 171.658426,83.6881555 C171.680834,83.1830425 171.680834,82.6779295 171.636018,82.172268 C171.636018,82.1064552 171.636018,82.0625801 171.613611,81.9967673 C171.613611,81.9748297 171.613611,81.9528921 171.613611,81.9309545 L171.613611,81.9084685 C171.591203,81.8207181 171.568795,81.7110302 171.546387,81.6232798 C171.523979,81.557467 171.501571,81.4697167 171.479163,81.3819663 C171.479163,81.3594803 171.456755,81.3156051 171.434347,81.2936675 C171.434347,81.2717299 171.411939,81.2497923 171.411939,81.2278547 C171.389531,81.162042 171.344715,81.1181668 171.299899,81.052354 C171.299899,81.052354 171.299899,81.052354 171.277492,81.0304164 C171.255084,81.0304164 171.255084,81.0084788 171.232676,80.9865413 C171.210268,80.9865413 171.210268,80.9646037 171.210268,80.9646037 C171.18786,80.9646037 171.165452,80.9646037 171.165452,80.9426661 C171.143044,80.9426661 171.120636,80.9426661 171.097668,80.9426661 L171.07526,80.9207285 C171.008036,80.9207285 170.96322,80.9207285 170.895996,80.9426661 C170.873589,80.9426661 170.873589,80.9426661 170.851181,80.9426661 C170.806365,80.9646037 170.783957,80.9646037 170.739141,80.9646037 C170.716733,80.9865413 170.671917,80.9865413 170.649509,81.0084788 C170.627101,81.0084788 170.604693,81.0304164 170.604693,81.0304164 C170.514501,81.0742916 170.447278,81.1181668 170.380054,81.162042 C170.335238,81.1839796 170.289862,81.2059172 170.267454,81.2278547 C170.245046,81.2497923 170.222638,81.2497923 170.20023,81.2717299 C170.133006,81.3375427 170.043375,81.4039039 169.976151,81.4697167 C169.818735,81.6232798 169.66188,81.7768429 169.527432,81.9309545 C169.190753,82.3263796 168.921858,82.7218047 168.629434,83.1830425 C167.889412,84.3254425 167.26087,85.5336553 166.677703,86.7638057 C166.004345,88.2138804 165.376362,89.6853443 164.793196,91.1573566 C163.648711,93.9911448 162.616265,96.8688083 161.651044,99.7684093 C161.539004,100.098022 160.978245,100.075536 161.000653,99.7025965 C161.112693,98.0770211 161.314925,96.4733832 161.539004,94.8691969 C162.077915,91.1792942 162.750713,87.5102322 163.491295,83.8642047 C163.827974,82.172268 164.187061,80.5028174 164.568556,78.8333668 C164.86042,77.625154 165.151723,76.4169412 165.51081,75.230666 C165.62285,74.8352409 166.251392,74.988804 166.139353,75.3847775 C165.734889,76.7465535 165.39877,78.152753 165.084499,79.5364665 C164.276693,83.0952921 163.580927,86.6541177 162.952384,90.2343325 C162.571449,92.4971949 162.167546,94.7375714 161.898651,97.0004338 C162.795529,94.4962579 163.715935,92.0134711 164.74838,89.5537187 C165.353954,88.0817064 165.981937,86.6321801 166.700111,85.2259806 C167.305685,84.061643 167.934228,82.919243 168.719066,81.8865309 C169.213161,81.2717299 169.841143,80.524755 170.649509,80.3273167 C170.96322,80.2615039 171.299899,80.2615039 171.591203,80.4370046 C171.883626,80.6563805 172.040482,80.9865413 172.152521,81.3156051 C172.444385,82.2600184 172.354753,83.3585432 172.264561,84.3473801 C172.152521,85.7530312 171.95085,87.1592308 171.703802,88.5648819 C171.389531,90.2562701 171.030444,91.9476583 170.694325,93.639595 C171.479163,91.9037831 172.309937,90.1904573 173.184967,88.4990691 C174.328892,86.2581442 175.563009,84.061643 176.932133,81.9309545 C177.492892,81.0742916 178.099027,80.2170803 178.749417,79.4042925 C179.220544,78.8114292 179.736486,78.2185658 180.364469,77.7787171 C180.768932,77.4715908 181.240059,77.2516665 181.756001,77.3174793 C182.182872,77.383292 182.451768,77.6909667 182.608623,78.0644542 C182.766039,78.4818169 182.788447,78.9869299 182.766039,79.4262301 C182.743631,80.0854547 182.653439,80.7441309 182.518991,81.3819663 C182.227688,83.0289309 181.778409,84.6545064 181.352098,86.2581442 C180.903379,87.9720185 180.455221,89.6634067 180.073165,91.3767325 C179.91631,92.1012214 179.781302,92.8048696 179.714078,93.5293586 L179.714078,93.5512962 C179.714078,93.5512962 179.714078,93.5512962 179.714078,93.5737822 C179.714078,93.5737822 179.69167,93.5957198 179.69167,93.6176574 C179.69167,93.6615326 179.69167,93.6834701 179.69167,93.7273453 C179.69167,93.7931581 179.669262,93.8814569 179.669262,93.9472697 C179.669262,94.1008328 179.646855,94.2324583 179.646855,94.3860215 C179.646855,94.649821 179.646855,94.8911345 179.69167,95.1554825 C179.69167,95.17742 179.69167,95.17742 179.69167,95.17742 C179.69167,95.1993576 179.714078,95.2212952 179.714078,95.2651704 C179.714078,95.3090456 179.736486,95.3529208 179.736486,95.396796 C179.758894,95.4626087 179.781302,95.5064839 179.781302,95.5503591 C179.80371,95.5728451 179.80371,95.5947827 179.80371,95.6167203 C179.849086,95.6825331 179.871494,95.7264082 179.91631,95.792221 C179.91631,95.792221 179.961126,95.8360962 179.983534,95.8580338 C180.02835,95.901909 180.095573,95.9457842 180.005942,95.8799714 C180.02835,95.901909 180.073165,95.9238466 180.117981,95.9457842 L180.140389,95.9677217 C180.185205,95.9677217 180.230021,95.9896593 180.252429,95.9896593 C180.274837,95.9896593 180.274837,95.9896593 180.274837,95.9896593 C180.297245,95.9896593 180.297245,95.9896593 180.319653,95.9896593 C180.701708,95.9896593 181.105611,95.8799714 181.486546,95.7044707 C182.675847,95.1554825 183.7307,94.2982711 184.650546,93.4196706 C185.705399,92.4094446 186.670061,91.2889821 187.388235,90.0368942 C187.590467,89.6634067 188.173633,89.993019 187.949554,90.3440204 L187.949554,90.3440204 Z" id="Fill-24" fill="#FFFFFE"></path>
                <path d="M187.949554,90.3440204 C187.612875,90.9593699 187.208412,91.5302956 186.782661,92.0573463 C185.862255,93.2216839 184.807962,94.2543959 183.618661,95.1554825 C182.743631,95.792221 181.711185,96.4953208 180.589668,96.6269463 C180.117981,96.6933075 179.669262,96.539196 179.377959,96.1437709 C179.108504,95.792221 179.04128,95.3309832 178.996464,94.8911345 C178.906272,93.5293586 179.243512,92.1456451 179.534815,90.8277443 C179.91631,89.1138701 180.387437,87.4005442 180.836156,85.6872184 C181.240059,84.1055182 181.666369,82.5243663 181.935825,80.8987909 C181.980641,80.7221933 182.003049,80.5466926 182.025457,80.3931294 C182.025457,80.3053791 182.047865,80.2170803 182.047865,80.1512675 C182.047865,80.1293299 182.070272,80.0635171 182.070272,80.0635171 C182.070272,80.019642 182.070272,79.9977044 182.070272,79.9757668 C182.09268,79.6905781 182.115088,79.4262301 182.115088,79.1410415 C182.115088,79.0308051 182.115088,78.8991795 182.09268,78.7894916 C182.09268,78.7456164 182.09268,78.6798036 182.070272,78.6139908 C182.070272,78.5920533 182.070272,78.5701157 182.070272,78.5262405 C182.047865,78.4379417 182.025457,78.3501913 181.980641,78.262441 C181.980641,78.2405034 181.958233,78.2185658 181.980641,78.2405034 L181.958233,78.2185658 C181.935825,78.1746906 181.913417,78.152753 181.913417,78.1088778 C181.891009,78.1088778 181.891009,78.1088778 181.891009,78.0869402 C181.891009,78.0869402 181.891009,78.0869402 181.868601,78.0869402 C181.846193,78.0644542 181.823785,78.0425166 181.801377,78.020579 C181.801377,78.020579 181.778409,77.9986414 181.756001,77.9986414 L181.733593,77.9767038 C181.688777,77.9767038 181.666369,77.9547663 181.621554,77.9547663 C181.599146,77.9547663 181.599146,77.9547663 181.599146,77.9547663 C181.55433,77.9547663 181.508954,77.9547663 181.464138,77.9547663 C181.44173,77.9547663 181.44173,77.9547663 181.44173,77.9547663 C181.44173,77.9547663 181.44173,77.9547663 181.464138,77.9547663 C181.44173,77.9547663 181.44173,77.9547663 181.44173,77.9547663 C181.419322,77.9547663 181.396914,77.9547663 181.44173,77.9547663 C181.419322,77.9547663 181.396914,77.9547663 181.396914,77.9767038 C181.32969,77.9767038 181.284874,77.9986414 181.240059,78.020579 C181.217651,78.020579 181.217651,78.020579 181.195243,78.020579 C181.172835,78.0425166 181.150427,78.0425166 181.150427,78.0425166 C181.015979,78.1088778 180.903379,78.1746906 180.79134,78.262441 C180.768932,78.2843786 180.746524,78.3063161 180.701708,78.3282537 C180.701708,78.3282537 180.6793,78.3501913 180.656892,78.3501913 C180.612076,78.3940665 180.544852,78.4379417 180.500037,78.5037545 C180.364469,78.6139908 180.230021,78.7236788 180.095573,78.8553043 C179.489999,79.4701053 178.951648,80.1512675 178.457553,80.8543673 C177.784755,81.7768429 177.178621,82.7437422 176.595454,83.7106415 C175.249298,85.9290804 174.037589,88.2138804 172.893104,90.5200696 C171.883626,92.5849453 170.895996,94.649821 170.043375,96.7810579 C169.998559,96.934621 169.773919,96.9784962 169.639472,96.9126834 C169.482616,96.8688083 169.415392,96.7152451 169.4378,96.539196 C169.482616,96.297334 169.54984,96.0335345 169.594656,95.792221 C170.133006,93.0461831 170.739141,90.3440204 171.18786,87.576045 C171.411939,86.3020194 171.591203,84.9841187 171.658426,83.6881555 C171.680834,83.1830425 171.680834,82.6779295 171.636018,82.172268 C171.636018,82.1064552 171.636018,82.0625801 171.613611,81.9967673 C171.613611,81.9748297 171.613611,81.9528921 171.613611,81.9309545 L171.613611,81.9084685 C171.591203,81.8207181 171.568795,81.7110302 171.546387,81.6232798 C171.523979,81.557467 171.501571,81.4697167 171.479163,81.3819663 C171.479163,81.3594803 171.456755,81.3156051 171.434347,81.2936675 C171.434347,81.2717299 171.411939,81.2497923 171.411939,81.2278547 C171.389531,81.162042 171.344715,81.1181668 171.299899,81.052354 C171.299899,81.052354 171.299899,81.052354 171.277492,81.0304164 C171.255084,81.0304164 171.255084,81.0084788 171.232676,80.9865413 C171.210268,80.9865413 171.210268,80.9646037 171.210268,80.9646037 C171.18786,80.9646037 171.165452,80.9646037 171.165452,80.9426661 C171.143044,80.9426661 171.120636,80.9426661 171.097668,80.9426661 L171.07526,80.9207285 C171.008036,80.9207285 170.96322,80.9207285 170.895996,80.9426661 C170.873589,80.9426661 170.873589,80.9426661 170.851181,80.9426661 C170.806365,80.9646037 170.783957,80.9646037 170.739141,80.9646037 C170.716733,80.9865413 170.671917,80.9865413 170.649509,81.0084788 C170.627101,81.0084788 170.604693,81.0304164 170.604693,81.0304164 C170.514501,81.0742916 170.447278,81.1181668 170.380054,81.162042 C170.335238,81.1839796 170.289862,81.2059172 170.267454,81.2278547 C170.245046,81.2497923 170.222638,81.2497923 170.20023,81.2717299 C170.133006,81.3375427 170.043375,81.4039039 169.976151,81.4697167 C169.818735,81.6232798 169.66188,81.7768429 169.527432,81.9309545 C169.190753,82.3263796 168.921858,82.7218047 168.629434,83.1830425 C167.889412,84.3254425 167.26087,85.5336553 166.677703,86.7638057 C166.004345,88.2138804 165.376362,89.6853443 164.793196,91.1573566 C163.648711,93.9911448 162.616265,96.8688083 161.651044,99.7684093 C161.539004,100.098022 160.978245,100.075536 161.000653,99.7025965 C161.112693,98.0770211 161.314925,96.4733832 161.539004,94.8691969 C162.077915,91.1792942 162.750713,87.5102322 163.491295,83.8642047 C163.827974,82.172268 164.187061,80.5028174 164.568556,78.8333668 C164.86042,77.625154 165.151723,76.4169412 165.51081,75.230666 C165.62285,74.8352409 166.251392,74.988804 166.139353,75.3847775 C165.734889,76.7465535 165.39877,78.152753 165.084499,79.5364665 C164.276693,83.0952921 163.580927,86.6541177 162.952384,90.2343325 C162.571449,92.4971949 162.167546,94.7375714 161.898651,97.0004338 C162.795529,94.4962579 163.715935,92.0134711 164.74838,89.5537187 C165.353954,88.0817064 165.981937,86.6321801 166.700111,85.2259806 C167.305685,84.061643 167.934228,82.919243 168.719066,81.8865309 C169.213161,81.2717299 169.841143,80.524755 170.649509,80.3273167 C170.96322,80.2615039 171.299899,80.2615039 171.591203,80.4370046 C171.883626,80.6563805 172.040482,80.9865413 172.152521,81.3156051 C172.444385,82.2600184 172.354753,83.3585432 172.264561,84.3473801 C172.152521,85.7530312 171.95085,87.1592308 171.703802,88.5648819 C171.389531,90.2562701 171.030444,91.9476583 170.694325,93.639595 C171.479163,91.9037831 172.309937,90.1904573 173.184967,88.4990691 C174.328892,86.2581442 175.563009,84.061643 176.932133,81.9309545 C177.492892,81.0742916 178.099027,80.2170803 178.749417,79.4042925 C179.220544,78.8114292 179.736486,78.2185658 180.364469,77.7787171 C180.768932,77.4715908 181.240059,77.2516665 181.756001,77.3174793 C182.182872,77.383292 182.451768,77.6909667 182.608623,78.0644542 C182.766039,78.4818169 182.788447,78.9869299 182.766039,79.4262301 C182.743631,80.0854547 182.653439,80.7441309 182.518991,81.3819663 C182.227688,83.0289309 181.778409,84.6545064 181.352098,86.2581442 C180.903379,87.9720185 180.455221,89.6634067 180.073165,91.3767325 C179.91631,92.1012214 179.781302,92.8048696 179.714078,93.5293586 L179.714078,93.5512962 C179.714078,93.5512962 179.714078,93.5512962 179.714078,93.5737822 C179.714078,93.5737822 179.69167,93.5957198 179.69167,93.6176574 C179.69167,93.6615326 179.69167,93.6834701 179.69167,93.7273453 C179.69167,93.7931581 179.669262,93.8814569 179.669262,93.9472697 C179.669262,94.1008328 179.646855,94.2324583 179.646855,94.3860215 C179.646855,94.649821 179.646855,94.8911345 179.69167,95.1554825 C179.69167,95.17742 179.69167,95.17742 179.69167,95.17742 C179.69167,95.1993576 179.714078,95.2212952 179.714078,95.2651704 C179.714078,95.3090456 179.736486,95.3529208 179.736486,95.396796 C179.758894,95.4626087 179.781302,95.5064839 179.781302,95.5503591 C179.80371,95.5728451 179.80371,95.5947827 179.80371,95.6167203 C179.849086,95.6825331 179.871494,95.7264082 179.91631,95.792221 C179.91631,95.792221 179.961126,95.8360962 179.983534,95.8580338 C180.02835,95.901909 180.095573,95.9457842 180.005942,95.8799714 C180.02835,95.901909 180.073165,95.9238466 180.117981,95.9457842 L180.140389,95.9677217 C180.185205,95.9677217 180.230021,95.9896593 180.252429,95.9896593 C180.274837,95.9896593 180.274837,95.9896593 180.274837,95.9896593 C180.297245,95.9896593 180.297245,95.9896593 180.319653,95.9896593 C180.701708,95.9896593 181.105611,95.8799714 181.486546,95.7044707 C182.675847,95.1554825 183.7307,94.2982711 184.650546,93.4196706 C185.705399,92.4094446 186.670061,91.2889821 187.388235,90.0368942 C187.590467,89.6634067 188.173633,89.993019 187.949554,90.3440204 Z" id="Stroke-25" stroke="#FFFEFE"></path>
                <path d="M195.952366,89.5578627 C195.360678,90.4207139 194.705652,91.2399255 194.007873,91.991744 C193.437299,92.6115386 192.823971,93.319165 192.083966,93.7174466 C191.428412,94.0720884 190.582843,94.1383766 189.969515,93.6511584 C189.314489,93.1423965 189.293376,92.2574492 189.39894,91.4829822 C189.441166,91.1957334 189.505032,90.9294758 189.547258,90.642227 C189.123946,91.3062137 188.722274,91.969648 188.299489,92.6557307 C188.025022,93.0982044 187.707274,93.5627741 187.178925,93.6953505 C186.671689,93.8058308 186.227792,93.496486 186.079474,92.9877241 C185.931684,92.522602 186.016136,91.969648 186.1217,91.4829822 C186.227792,90.9736679 186.396695,90.4649061 186.629464,90.0008887 C187.622823,88.0531207 189.673935,86.8582761 191.787858,87.013501 C192.190058,87.035597 192.21117,87.6995837 191.808971,87.6548392 C190.794499,87.588551 189.800612,87.8321601 188.93393,88.3635704 C188.172812,88.8281402 187.580597,89.5136705 187.178925,90.3102336 C186.967797,90.7085152 186.820007,91.1294452 186.735556,91.5713664 C186.650576,91.9475519 186.545012,92.4342177 186.671689,92.8104032 C186.798894,93.2528769 187.242264,93.0319162 187.45392,92.7662111 C187.770613,92.3900256 188.025022,91.9033598 188.278376,91.4829822 C188.870064,90.5311942 189.462807,89.5799587 190.054494,88.6287232 C190.244509,88.3414744 190.73116,88.4961468 190.646709,88.8723323 C190.371187,89.7793757 190.138945,90.7085152 190.012268,91.6376546 C189.927289,92.2348007 189.927289,92.9877241 190.540617,93.2528769 C191.153945,93.518582 191.808971,93.2086847 192.274509,92.8104032 C192.887309,92.3237374 193.416186,91.7265913 193.923422,91.1294452 C194.45177,90.5311942 194.938421,89.9119521 195.402904,89.2479654 C195.508996,89.115389 195.677899,89.0270047 195.825688,89.137485 C195.973478,89.2037732 196.058985,89.4252863 195.952366,89.5578627" id="Fill-26" fill="#FFFFFE"></path>
                <path d="M195.952366,89.5578627 C195.360678,90.4207139 194.705652,91.2399255 194.007873,91.991744 C193.437299,92.6115386 192.823971,93.319165 192.083966,93.7174466 C191.428412,94.0720884 190.582843,94.1383766 189.969515,93.6511584 C189.314489,93.1423965 189.293376,92.2574492 189.39894,91.4829822 C189.441166,91.1957334 189.505032,90.9294758 189.547258,90.642227 C189.123946,91.3062137 188.722274,91.969648 188.299489,92.6557307 C188.025022,93.0982044 187.707274,93.5627741 187.178925,93.6953505 C186.671689,93.8058308 186.227792,93.496486 186.079474,92.9877241 C185.931684,92.522602 186.016136,91.969648 186.1217,91.4829822 C186.227792,90.9736679 186.396695,90.4649061 186.629464,90.0008887 C187.622823,88.0531207 189.673935,86.8582761 191.787858,87.013501 C192.190058,87.035597 192.21117,87.6995837 191.808971,87.6548392 C190.794499,87.588551 189.800612,87.8321601 188.93393,88.3635704 C188.172812,88.8281402 187.580597,89.5136705 187.178925,90.3102336 C186.967797,90.7085152 186.820007,91.1294452 186.735556,91.5713664 C186.650576,91.9475519 186.545012,92.4342177 186.671689,92.8104032 C186.798894,93.2528769 187.242264,93.0319162 187.45392,92.7662111 C187.770613,92.3900256 188.025022,91.9033598 188.278376,91.4829822 C188.870064,90.5311942 189.462807,89.5799587 190.054494,88.6287232 C190.244509,88.3414744 190.73116,88.4961468 190.646709,88.8723323 C190.371187,89.7793757 190.138945,90.7085152 190.012268,91.6376546 C189.927289,92.2348007 189.927289,92.9877241 190.540617,93.2528769 C191.153945,93.518582 191.808971,93.2086847 192.274509,92.8104032 C192.887309,92.3237374 193.416186,91.7265913 193.923422,91.1294452 C194.45177,90.5311942 194.938421,89.9119521 195.402904,89.2479654 C195.508996,89.115389 195.677899,89.0270047 195.825688,89.137485 C195.973478,89.2037732 196.058985,89.4252863 195.952366,89.5578627 Z" id="Stroke-27" stroke="#FFFEFE"></path>
                <path d="M200.077421,94.6007293 C198.698646,96.4058675 197.680058,98.5395123 196.979811,100.718203 C196.619624,101.818535 196.32194,102.918318 196.046503,104.062598 C195.749349,105.272799 195.495099,106.482999 195.410349,107.737147 C195.389161,108.330986 195.389161,108.947898 195.452724,109.56371 C195.516286,110.025157 195.579849,110.642069 195.876473,111.037595 C196.15244,111.411697 196.661999,111.411697 197.043904,111.213934 C197.510028,110.993648 197.786525,110.531651 198.019587,110.091628 C199.016458,108.133223 199.653142,105.955082 200.056234,103.798914 C200.459325,101.576276 200.565792,99.3102393 200.395763,97.0656274 C200.3322,96.2295287 200.225733,95.4154037 200.077421,94.6007293 Z M205.784269,90.4422095 C205.339332,90.5746009 204.893865,90.7289661 204.469056,90.9487029 C202.941439,91.6743838 201.668601,92.7087951 200.58698,93.9629431 C201.011259,96.0312162 201.159572,98.143986 201.074822,100.233683 C200.968884,102.544216 200.58698,104.854749 199.886734,107.032891 C199.547204,108.111249 199.143583,109.189608 198.655741,110.202046 C198.189617,111.147463 197.425278,112.137927 196.300753,111.984111 C195.134382,111.808322 194.921977,110.421782 194.81551,109.453292 C194.688385,108.177171 194.837227,106.901049 195.070819,105.646901 C195.495099,103.270996 196.15244,100.893993 197.065091,98.6719038 C197.764808,96.933236 198.719833,95.2390649 199.929109,93.7871536 C199.907921,93.76518 199.907921,93.7212326 199.907921,93.6772852 C199.780796,93.1488181 199.653142,92.6209003 199.504829,92.0929825 C199.398892,91.7842523 199.33533,91.1464661 198.889333,91.3667523 C198.465054,91.5645154 198.210804,92.0050878 197.977212,92.4006141 C197.680058,92.8845845 197.340528,93.3471306 196.979811,93.8091273 C196.640812,94.2271767 196.300753,94.6891734 195.876473,95.0413017 C195.516286,95.327509 195.027915,95.4813247 194.603636,95.1951175 C193.882732,94.7116964 193.946294,93.6113642 194.094606,92.8406372 C194.285823,91.9171931 194.73076,91.0585713 195.282694,90.332341 C196.40669,88.9018542 198.168429,87.97841 199.950296,88.0003837 C200.353388,88.0223574 200.374575,88.6601436 199.971484,88.6601436 C199.526017,88.6381699 199.101208,88.6821173 198.677458,88.8139594 C196.958624,89.2545318 195.473911,90.640522 194.879602,92.3566668 C194.73076,92.7747161 194.624823,93.2147392 194.603636,93.6553115 C194.603636,93.9849168 194.64601,94.4249398 194.921977,94.6446767 C195.282694,94.9314333 195.749349,94.2711241 195.961753,94.0508379 C196.343128,93.6113642 196.725562,93.1488181 197.065091,92.6648477 C197.361716,92.202851 197.616495,91.7183312 197.956025,91.3008312 C198.253179,90.9926503 198.655741,90.6624957 199.101208,90.6624957 C199.653142,90.6624957 199.886734,91.1904134 200.035046,91.6743838 C200.183358,92.1808773 200.311013,92.6868214 200.438138,93.2147392 C201.838101,91.6524102 203.578122,90.4422095 205.614769,89.8044233 C205.997203,89.6945548 206.166703,90.3103674 205.784269,90.4422095 L205.784269,90.4422095 Z" id="Fill-28" fill="#FFFFFE"></path>
                <path d="M200.077421,94.6007293 C198.698646,96.4058675 197.680058,98.5395123 196.979811,100.718203 C196.619624,101.818535 196.32194,102.918318 196.046503,104.062598 C195.749349,105.272799 195.495099,106.482999 195.410349,107.737147 C195.389161,108.330986 195.389161,108.947898 195.452724,109.56371 C195.516286,110.025157 195.579849,110.642069 195.876473,111.037595 C196.15244,111.411697 196.661999,111.411697 197.043904,111.213934 C197.510028,110.993648 197.786525,110.531651 198.019587,110.091628 C199.016458,108.133223 199.653142,105.955082 200.056234,103.798914 C200.459325,101.576276 200.565792,99.3102393 200.395763,97.0656274 C200.3322,96.2295287 200.225733,95.4154037 200.077421,94.6007293 Z M205.784269,90.4422095 C205.339332,90.5746009 204.893865,90.7289661 204.469056,90.9487029 C202.941439,91.6743838 201.668601,92.7087951 200.58698,93.9629431 C201.011259,96.0312162 201.159572,98.143986 201.074822,100.233683 C200.968884,102.544216 200.58698,104.854749 199.886734,107.032891 C199.547204,108.111249 199.143583,109.189608 198.655741,110.202046 C198.189617,111.147463 197.425278,112.137927 196.300753,111.984111 C195.134382,111.808322 194.921977,110.421782 194.81551,109.453292 C194.688385,108.177171 194.837227,106.901049 195.070819,105.646901 C195.495099,103.270996 196.15244,100.893993 197.065091,98.6719038 C197.764808,96.933236 198.719833,95.2390649 199.929109,93.7871536 C199.907921,93.76518 199.907921,93.7212326 199.907921,93.6772852 C199.780796,93.1488181 199.653142,92.6209003 199.504829,92.0929825 C199.398892,91.7842523 199.33533,91.1464661 198.889333,91.3667523 C198.465054,91.5645154 198.210804,92.0050878 197.977212,92.4006141 C197.680058,92.8845845 197.340528,93.3471306 196.979811,93.8091273 C196.640812,94.2271767 196.300753,94.6891734 195.876473,95.0413017 C195.516286,95.327509 195.027915,95.4813247 194.603636,95.1951175 C193.882732,94.7116964 193.946294,93.6113642 194.094606,92.8406372 C194.285823,91.9171931 194.73076,91.0585713 195.282694,90.332341 C196.40669,88.9018542 198.168429,87.97841 199.950296,88.0003837 C200.353388,88.0223574 200.374575,88.6601436 199.971484,88.6601436 C199.526017,88.6381699 199.101208,88.6821173 198.677458,88.8139594 C196.958624,89.2545318 195.473911,90.640522 194.879602,92.3566668 C194.73076,92.7747161 194.624823,93.2147392 194.603636,93.6553115 C194.603636,93.9849168 194.64601,94.4249398 194.921977,94.6446767 C195.282694,94.9314333 195.749349,94.2711241 195.961753,94.0508379 C196.343128,93.6113642 196.725562,93.1488181 197.065091,92.6648477 C197.361716,92.202851 197.616495,91.7183312 197.956025,91.3008312 C198.253179,90.9926503 198.655741,90.6624957 199.101208,90.6624957 C199.653142,90.6624957 199.886734,91.1904134 200.035046,91.6743838 C200.183358,92.1808773 200.311013,92.6868214 200.438138,93.2147392 C201.838101,91.6524102 203.578122,90.4422095 205.614769,89.8044233 C205.997203,89.6945548 206.166703,90.3103674 205.784269,90.4422095 Z" id="Stroke-29" stroke="#FFFEFE"></path>
                <path d="M206.159319,86.231543 C206.115038,85.8578836 206.181459,85.5067207 206.337549,85.1550091 C206.40397,85.0008266 206.625373,84.9569312 206.780356,85.044722 C206.935892,85.1325127 206.980173,85.3086429 206.913752,85.484773 C206.802496,85.7042499 206.780356,85.9681708 206.824637,86.2095953 C206.846777,86.3851767 206.669654,86.5399079 206.492531,86.5399079 C206.315408,86.5399079 206.181459,86.4071244 206.159319,86.231543 Z M210.948835,90.5393245 C210.394218,91.3524862 209.795875,92.1431515 209.175391,92.8910188 C208.642915,93.5280503 208.110992,94.2534212 207.3787,94.6709759 C206.713935,95.0890793 205.627396,95.2207654 205.206729,94.3851073 C205.006912,94.0119967 204.984772,93.594442 205.006912,93.1763387 C205.051193,92.7148886 205.117614,92.2539873 205.184589,91.7919885 C205.317431,90.8690884 205.494554,89.9461884 205.738651,89.0227396 C205.849353,88.6271326 206.492531,88.7813151 206.381829,89.1763734 C206.137178,90.0778745 205.937915,91.0007745 205.805073,91.9017269 C205.760792,92.3198303 205.693817,92.7148886 205.671677,93.1324433 C205.649536,93.4622072 205.627396,93.8139189 205.782932,94.1217351 C205.960055,94.4290027 206.359689,94.3851073 206.647514,94.2973166 C207.002313,94.2095258 207.312278,93.9681013 207.556376,93.7261281 C208.088852,93.1982863 208.57594,92.6051502 209.041995,92.033413 C209.507496,91.4622246 209.950857,90.8471408 210.372078,90.2315082 C210.616176,89.902293 211.170238,90.2095606 210.948835,90.5393245 L210.948835,90.5393245 Z" id="Fill-31" fill="#FFFFFE"></path>
                <path d="M206.159319,86.231543 C206.115038,85.8578836 206.181459,85.5067207 206.337549,85.1550091 C206.40397,85.0008266 206.625373,84.9569312 206.780356,85.044722 C206.935892,85.1325127 206.980173,85.3086429 206.913752,85.484773 C206.802496,85.7042499 206.780356,85.9681708 206.824637,86.2095953 C206.846777,86.3851767 206.669654,86.5399079 206.492531,86.5399079 C206.315408,86.5399079 206.181459,86.4071244 206.159319,86.231543 Z M210.948835,90.5393245 C210.394218,91.3524862 209.795875,92.1431515 209.175391,92.8910188 C208.642915,93.5280503 208.110992,94.2534212 207.3787,94.6709759 C206.713935,95.0890793 205.627396,95.2207654 205.206729,94.3851073 C205.006912,94.0119967 204.984772,93.594442 205.006912,93.1763387 C205.051193,92.7148886 205.117614,92.2539873 205.184589,91.7919885 C205.317431,90.8690884 205.494554,89.9461884 205.738651,89.0227396 C205.849353,88.6271326 206.492531,88.7813151 206.381829,89.1763734 C206.137178,90.0778745 205.937915,91.0007745 205.805073,91.9017269 C205.760792,92.3198303 205.693817,92.7148886 205.671677,93.1324433 C205.649536,93.4622072 205.627396,93.8139189 205.782932,94.1217351 C205.960055,94.4290027 206.359689,94.3851073 206.647514,94.2973166 C207.002313,94.2095258 207.312278,93.9681013 207.556376,93.7261281 C208.088852,93.1982863 208.57594,92.6051502 209.041995,92.033413 C209.507496,91.4622246 209.950857,90.8471408 210.372078,90.2315082 C210.616176,89.902293 211.170238,90.2095606 210.948835,90.5393245 Z" id="Stroke-32" stroke="#FFFEFE"></path>
                <path d="M217.918772,89.6121558 C216.905628,90.9077222 215.734497,92.1124911 214.338472,92.9535027 C213.730698,93.3172601 213.077383,93.6129193 212.402141,93.7945143 C211.748826,93.9761092 211.028043,94.0896061 210.352239,93.9080111 C209.676997,93.7264162 209.181107,93.2264626 209.046171,92.5216472 C208.911235,91.8173994 209.09115,91.1120165 209.339095,90.4531674 C209.609529,89.7716189 209.99241,89.1349016 210.442196,88.5668499 C210.870618,88.0436295 211.433413,87.4755778 212.063676,87.1804861 C212.379651,87.021023 212.76197,86.9302255 213.099872,87.0664217 C213.437774,87.2031854 213.66323,87.5209766 213.730698,87.8620346 C213.888123,88.6122487 213.617689,89.4299934 213.189829,90.0445788 C213.099872,90.180775 212.919958,90.2715724 212.739481,90.1580756 C212.604545,90.0899775 212.514587,89.8624163 212.627034,89.7029533 C212.829438,89.407294 212.987426,89.0668035 213.054894,88.7030461 C213.122361,88.4306537 213.189829,88.0436295 213.009915,87.7939365 C212.829438,87.5436759 212.447119,87.703139 212.244153,87.8166358 C211.95123,87.9982308 211.681358,88.2252245 211.433413,88.4760525 C210.600184,89.2937972 209.924379,90.4077686 209.699486,91.5671388 C209.609529,92.0897918 209.632018,92.726509 210.082367,93.067567 C210.510226,93.3626588 211.095511,93.3626588 211.568349,93.2945607 C214.023621,92.908104 215.959952,91.0212191 217.468424,89.157601 C217.716368,88.816543 218.189769,89.2937972 217.918772,89.6121558" id="Fill-33" fill="#FFFFFE"></path>
                <path d="M217.918772,89.6121558 C216.905628,90.9077222 215.734497,92.1124911 214.338472,92.9535027 C213.730698,93.3172601 213.077383,93.6129193 212.402141,93.7945143 C211.748826,93.9761092 211.028043,94.0896061 210.352239,93.9080111 C209.676997,93.7264162 209.181107,93.2264626 209.046171,92.5216472 C208.911235,91.8173994 209.09115,91.1120165 209.339095,90.4531674 C209.609529,89.7716189 209.99241,89.1349016 210.442196,88.5668499 C210.870618,88.0436295 211.433413,87.4755778 212.063676,87.1804861 C212.379651,87.021023 212.76197,86.9302255 213.099872,87.0664217 C213.437774,87.2031854 213.66323,87.5209766 213.730698,87.8620346 C213.888123,88.6122487 213.617689,89.4299934 213.189829,90.0445788 C213.099872,90.180775 212.919958,90.2715724 212.739481,90.1580756 C212.604545,90.0899775 212.514587,89.8624163 212.627034,89.7029533 C212.829438,89.407294 212.987426,89.0668035 213.054894,88.7030461 C213.122361,88.4306537 213.189829,88.0436295 213.009915,87.7939365 C212.829438,87.5436759 212.447119,87.703139 212.244153,87.8166358 C211.95123,87.9982308 211.681358,88.2252245 211.433413,88.4760525 C210.600184,89.2937972 209.924379,90.4077686 209.699486,91.5671388 C209.609529,92.0897918 209.632018,92.726509 210.082367,93.067567 C210.510226,93.3626588 211.095511,93.3626588 211.568349,93.2945607 C214.023621,92.908104 215.959952,91.0212191 217.468424,89.157601 C217.716368,88.816543 218.189769,89.2937972 217.918772,89.6121558 Z" id="Stroke-34" stroke="#FFFEFE"></path>
            </g>
        </g>
    </g>
</svg>