<?xml version="1.0" encoding="UTF-8"?>
<svg width="35px" height="34px" viewBox="0 0 35 34" version="1.1" xmlns="http://www.w3.org/2000/svg" xmlns:xlink="http://www.w3.org/1999/xlink">
    <title>non veg</title>
    <g id="Page-1" stroke="none" stroke-width="1" fill="none" fill-rule="evenodd">
        <g id="02_dining" transform="translate(-253.000000, -698.000000)">
            <g id="non-veg" transform="translate(253.000000, 698.000000)">
                <rect id="Rectangle" stroke="#EEF1F9" stroke-width="2" x="1" y="1" width="33" height="32" rx="4"></rect>
                <circle id="Oval" fill="#FF0000" cx="18" cy="17" r="8"></circle>
            </g>
        </g>
    </g>
</svg>