<?xml version="1.0" encoding="UTF-8"?>
<svg width="43px" height="47px" viewBox="0 0 43 47" version="1.1" xmlns="http://www.w3.org/2000/svg" xmlns:xlink="http://www.w3.org/1999/xlink">
    <title>nottification_icon_inactive</title>
    <g id="Page-1" stroke="none" stroke-width="1" fill="none" fill-rule="evenodd">
        <g id="nottification_icon_inactive" fill="#FFFFFF">
            <path d="M19.4998214,6 C19.8118872,6 20.1493037,6.00571987 20.4613694,6.05862863 C21.2586723,6.19125804 21.7971106,6.9469953 21.6642863,7.74348665 C21.531819,8.539978 20.7634376,9.07907538 19.981488,8.9460885 C19.8254552,8.92070657 19.654069,8.92857143 19.4998214,8.92857143 C13.5877118,8.92857143 8.77497322,13.7450561 8.77497322,19.6665475 L8.77497322,25.1136474 C8.77497322,29.8307495 6.70976956,34.2940325 3.11422995,37.3570207 C3.08495152,37.3806152 3.05960062,37.4020647 3.02817982,37.4235142 C2.97569287,37.4900077 2.92499107,37.5915353 2.92499107,37.7263097 C2.92499107,37.9915684 3.14743609,38.2142857 3.41237054,38.2142857 L12.8962967,38.2137449 C13.1395952,38.0103025 13.4465259,37.8888889 13.78,37.8888889 C14.1134741,37.8888889 14.4204048,38.0103025 14.6637033,38.2137449 L24.3362967,38.2137449 C24.5795952,38.0103025 24.8865259,37.8888889 25.22,37.8888889 C25.5534741,37.8888889 25.8604048,38.0103025 26.1037033,38.2137449 L35.5872723,38.2142857 C35.8525639,38.2142857 36.0750089,37.9915684 36.0750089,37.7263097 C36.0750089,37.5893903 36.0243071,37.4900077 35.9696778,37.4235142 C35.9403993,37.4020647 35.9150485,37.3806152 35.88577,37.3570207 C32.2880881,34.2918876 30.2250268,29.8307495 30.2250268,25.1136474 L30.2250268,22.9858572 C30.2250268,22.1775687 30.880222,21.5215715 31.6875223,21.5215715 C32.4948227,21.5215715 33.1500179,22.1775687 33.1500179,22.9858572 L33.1500179,25.1136474 C33.1500179,28.9152134 34.7899695,32.5151541 37.6564036,35.0183105 C37.7088907,35.0533448 37.7595924,35.0905239 37.8063665,35.1316354 C38.5651075,35.7797678 39,36.7264056 39,37.7263097 C39,39.6102905 37.469307,41.1428571 35.5872723,41.1428571 L26.461525,41.1429213 C25.7202018,44.4962561 22.8793504,47 19.5,47 C16.120949,47 13.2798836,44.4962561 12.5384933,41.1429213 L3.41237054,41.1428571 C1.53069298,41.1428571 0,39.6102905 0,37.7263097 C0,36.7264056 0.434892426,35.7797678 1.19327643,35.1294905 C1.24219289,35.0865915 1.29467984,35.0476249 1.34930926,35.0122332 C4.21181576,32.5112218 5.84998214,28.9130685 5.84998214,25.1136474 L5.84998214,19.6665475 C5.84998214,12.1306239 11.9748963,6 19.4998214,6 Z M23.466471,41.1430167 L15.533529,41.1430167 C16.1777493,42.7968918 17.7137194,43.962963 19.5,43.962963 C21.2862806,43.962963 22.8222507,42.7968918 23.466471,41.1430167 Z M33.500174,0 C38.7385421,0 43,4.26180576 43,9.50017398 C43,14.7385421 38.7385421,19 33.500174,19 C28.2618058,19 24,14.7385421 24,9.50017398 C24,4.26180576 28.2618058,0 33.500174,0 Z M33.500174,2.8500174 C29.8329336,2.8500174 26.8500174,5.8329336 26.8500174,9.50017398 C26.8500174,13.1670665 29.8329336,16.1499826 33.500174,16.1499826 C37.1670665,16.1499826 40.1499826,13.1670665 40.1499826,9.50017398 C40.1499826,5.8329336 37.1670665,2.8500174 33.500174,2.8500174 Z" id="Combined-Shape"></path>
        </g>
    </g>
</svg>