<?xml version="1.0" encoding="UTF-8"?>
<svg width="60px" height="63px" viewBox="0 0 60 63" version="1.1" xmlns="http://www.w3.org/2000/svg" xmlns:xlink="http://www.w3.org/1999/xlink">
    <title>discount</title>
    <g id="Page-1" stroke="none" stroke-width="1" fill="none" fill-rule="evenodd">
        <g id="discount" fill="#494237" fill-rule="nonzero">
            <path d="M26.2103541,1.55355664 C28.3353892,-0.517913734 31.6646108,-0.517790689 33.789768,1.55355664 L33.789768,1.55355664 L37.6064043,5.27346708 C38.0180993,5.67471833 38.5792795,5.85854825 39.1468104,5.77783043 L39.1468104,5.77783043 L44.4048067,5.02848356 C47.3318593,4.61123639 50.0257687,6.58291689 50.536632,9.51705901 L50.536632,9.51705901 L51.4540609,14.7869731 C51.5531071,15.3553201 51.900074,15.836674 52.4061743,16.1071279 L52.4061743,16.1071279 L57.0971282,18.6147945 C59.7089673,20.0109913 60.7377773,23.200945 59.4393076,25.8773068 L59.4393076,25.8773068 L57.1071427,30.6840778 C56.8555581,31.2025914 56.8555581,31.7973932 57.1071427,32.3160298 L57.1071427,32.3160298 L59.4393076,37.1228008 C60.7377773,39.7991627 59.7089673,42.9893624 57.0971282,44.3854362 L57.0971282,44.3854362 L52.4061743,46.8931028 C51.9001962,47.1636797 51.5532292,47.6449106 51.4541831,48.2133806 L51.4541831,48.2133806 L50.536632,53.4830486 C50.0257687,56.4171907 47.3332027,58.3889943 44.4048067,57.9716241 L44.4048067,57.9716241 L39.1468104,57.2222772 C38.5795238,57.1420516 38.0182214,57.3253893 37.6064043,57.7266406 L37.6064043,57.7266406 L33.7896459,61.446551 C32.7273726,62.4821016 31.3633199,63 30,63 C28.6363137,63 27.2731159,62.4823477 26.2103541,61.446551 L26.2103541,61.446551 L22.3937179,57.7266406 C21.9819007,57.3253893 21.4203541,57.1411903 20.8533117,57.2222772 L20.8533117,57.2222772 L15.5953155,57.9716241 C15.3328614,58.0090299 15.0717508,58.0272406 14.8144261,58.0272406 C12.2017322,58.0274867 9.92843316,56.1542426 9.46336801,53.4831717 L9.46336801,53.4831717 L8.54593908,48.2132575 C8.4468929,47.6449106 8.09992597,47.1635567 7.59382567,46.8931028 L7.59382567,46.8931028 L2.90287182,44.3854362 C0.291032744,42.9892394 -0.737777337,39.7992857 0.560692366,37.1229239 L0.560692366,37.1229239 L2.89285729,32.3162759 C3.1444419,31.7977623 3.1444419,31.2029606 2.89285729,30.6843239 L2.89285729,30.6843239 L0.560814494,25.877676 C-0.737655208,23.2013141 0.291154872,20.0111144 2.90299395,18.6150405 L2.90299395,18.6150405 L7.59394779,16.107374 C8.09992597,15.836797 8.4468929,15.3555662 8.54593908,14.7870962 L8.54593908,14.7870962 L9.46336801,9.51742814 C9.97423132,6.58328603 12.6671637,4.61135944 15.5951933,5.02885269 L15.5951933,5.02885269 L20.8531896,5.77819956 C21.4205984,5.8586713 21.9817786,5.67521051 22.3935957,5.27383621 L22.3935957,5.27383621 Z M31.2819824,4.16531964 C30.56289,3.46469877 29.4364993,3.46469877 28.7176513,4.16531964 L28.7176513,4.16531964 L24.9008929,7.88523007 C23.6838828,9.07126529 22.0240351,9.6147571 20.347822,9.37567977 L20.347822,9.37567977 L15.0898258,8.6263329 C14.0989977,8.4853228 13.1881637,9.15222921 13.0152298,10.14496 L13.0152298,10.14496 L12.0978008,15.4147511 C11.8053032,17.0950599 10.7795463,18.5172194 9.28396131,19.3168919 L9.28396131,19.3168919 L4.59300747,21.8245584 C3.70928599,22.2969299 3.3612199,23.3761617 3.80051594,24.2816533 L3.80051594,24.2816533 L6.13268086,29.0884243 C6.87619888,30.6210786 6.87619888,32.378906 6.13268086,33.9115603 L6.13268086,33.9115603 L3.80051594,38.7183313 C3.3612199,39.6238229 3.70928599,40.7030547 4.59300747,41.1754262 L4.59300747,41.1754262 L9.28396131,43.6830927 C10.7796685,44.4825191 11.8053032,45.9048016 12.097923,47.5851105 L12.097923,47.5851105 L13.015474,52.8550246 C13.1884079,53.8477554 14.1000968,54.5146618 15.0900701,54.3736517 L15.0900701,54.3736517 L20.3480663,53.6243048 C20.6077114,53.5872681 20.8669901,53.5690574 21.1241926,53.5690574 C22.527937,53.5690574 23.8725713,54.1123031 24.9011371,55.1147545 L24.9011371,55.1147545 L28.7177734,58.834665 C29.4368657,59.5352858 30.5632564,59.5352858 31.2821045,58.834665 L31.2821045,58.834665 L35.0988629,55.1148776 C36.3158729,53.9288424 37.9751101,53.3851044 39.6519337,53.6244279 L39.6519337,53.6244279 L44.9099299,54.3737747 C45.9007581,54.5146618 46.8117142,53.8478784 46.984526,52.8551476 L46.984526,52.8551476 L47.9019549,47.5853565 C48.1944525,45.9050477 49.2202094,44.4828882 50.7157944,43.6832158 L50.7157944,43.6832158 L55.4067483,41.1755492 C56.2904698,40.7031777 56.6385358,39.6238229 56.1991177,38.7180853 L56.1991177,38.7180853 L53.8669528,33.9114373 C53.1234347,32.378906 53.1234347,30.6208325 53.8669528,29.0883012 L53.8669528,29.0883012 L56.1991177,24.2816533 C56.6384137,23.3761617 56.2903476,22.2969299 55.4066261,21.8245584 L55.4066261,21.8245584 L50.7156723,19.3168919 C49.2199651,18.5174655 48.1943304,17.095183 47.9017106,15.4148741 L47.9017106,15.4148741 L46.9842817,10.14496 C46.8114699,9.15222921 45.899781,8.48519975 44.9096857,8.6263329 L44.9096857,8.6263329 L39.6516894,9.37567977 C37.9752322,9.6147571 36.3156286,9.07138834 35.0986186,7.88523007 L35.0986186,7.88523007 Z M37.5,35 C41.0840706,35 44,37.9159294 44,41.5 C44,45.0840706 41.0840706,48 37.5,48 C33.9159294,48 31,45.0840706 31,41.5 C31,37.9159294 33.9159294,35 37.5,35 Z M40.9674427,18.52028 C41.6611521,17.8265733 42.7860537,17.8265733 43.4796428,18.52028 C44.1734725,19.214107 44.1734725,20.3387636 43.4795225,21.0325906 L43.4795225,21.0325906 L20.0323618,44.4796598 C19.6856274,44.8266335 19.2308544,45 18.7763219,45 C18.3217895,45 17.8671367,44.8265132 17.520282,44.4796598 C16.8265727,43.7859532 16.8265727,42.6611762 17.520282,41.9674695 L17.520282,41.9674695 Z M37.5,38.5455309 C35.8707678,38.5455309 34.5454109,39.8708879 34.5454109,41.5 C34.5454109,43.1291121 35.8708879,44.4544691 37.5,44.4544691 C39.1291121,44.4544691 40.4544691,43.1291121 40.4544691,41.5 C40.4544691,39.8708879 39.1291121,38.5455309 37.5,38.5455309 Z M22.5,15 C26.0840706,15 29,17.9159294 29,21.5 C29,25.0840706 26.0840706,28 22.5,28 C18.9159294,28 16,25.0840706 16,21.5 C16,17.9159294 18.9159294,15 22.5,15 Z M22.5,18.5454109 C20.8708879,18.5454109 19.5455309,19.8707678 19.5455309,21.4998799 C19.5455309,23.1291121 20.8708879,24.4544691 22.5,24.4544691 C24.1291121,24.4544691 25.4544691,23.1291121 25.4545891,21.4998799 C25.4545891,19.8707678 24.1291121,18.5454109 22.5,18.5454109 Z" id="Combined-Shape"></path>
        </g>
    </g>
</svg>