<?xml version="1.0" encoding="UTF-8"?>
<svg width="24px" height="33px" viewBox="0 0 24 33" version="1.1" xmlns="http://www.w3.org/2000/svg" xmlns:xlink="http://www.w3.org/1999/xlink">
    <title>placeholder</title>
    <g id="Page-1" stroke="none" stroke-width="1" fill="none" fill-rule="evenodd">
        <g id="restaurant-2" transform="translate(-314.000000, -302.000000)" fill="#ffffff" fill-rule="nonzero">
            <g id="placeholder" transform="translate(314.000000, 302.000000)">
                <path d="M12,0 C18.6168,0 24,5.20446094 24,11.6015625 C24,13.6988027 23.4147333,15.7541484 22.3074,17.5454297 L22.3074,17.5454297 L13.0245333,32.5300078 C12.8454,32.8192734 12.5232667,32.9973574 12.1745333,33 L12.1745333,33 C11.8208667,33 11.4994,32.8272656 11.3169333,32.5429629 L11.3169333,32.5429629 L1.79126667,17.7021797 C0.619266667,15.8722266 0,13.7629336 0,11.6015625 C0,5.20446094 5.3832,0 12,0 Z M12,1.92070313 C6.486,1.92070313 1.98666667,6.27064453 1.98666667,11.6015625 C1.98666667,13.4030273 2.5156,15.1602773 3.49113333,16.6834336 L3.49113333,16.6834336 L12.1514667,30.1760508 L20.5910667,16.5527227 C21.5126,15.0619219 22.0066667,13.3495957 22.0066667,11.6015625 C22.0066667,6.27064453 17.514,1.92070313 12,1.92070313 Z M12.5,7 C15.5327,7 18,9.4673 18,12.5 C18,15.4802056 15.6107389,18 12.5,18 C9.42715,18 7,15.5133278 7,12.5 C7,9.4673 9.4673,7 12.5,7 Z M12.5,8.82111111 C10.4782,8.82111111 8.82111111,10.4782 8.82111111,12.5 C8.82111111,14.5268722 10.4676278,16.1788889 12.5,16.1788889 C14.5645778,16.1788889 16.1727778,14.4972944 16.1727778,12.5 C16.1727778,10.4782 14.5218,8.82111111 12.5,8.82111111 Z" id="Combined-Shape"></path>
            </g>
        </g>
    </g>
</svg>